<?xml version="1.0" encoding="utf-8"?>
<!DOCTYPE eagle SYSTEM "eagle.dtd">
<eagle version="9.5.2">
<drawing>
<settings>
<setting alwaysvectorfont="no"/>
<setting verticaltext="up"/>
</settings>
<grid distance="0.1" unitdist="inch" unit="inch" style="lines" multiple="1" display="no" altdistance="0.01" altunitdist="inch" altunit="inch"/>
<layers>
<layer number="1" name="Top" color="4" fill="1" visible="no" active="no"/>
<layer number="2" name="Route2" color="16" fill="1" visible="no" active="no"/>
<layer number="3" name="Route3" color="17" fill="1" visible="no" active="no"/>
<layer number="4" name="Route4" color="18" fill="1" visible="no" active="no"/>
<layer number="5" name="Route5" color="19" fill="1" visible="no" active="no"/>
<layer number="6" name="Route6" color="25" fill="1" visible="no" active="no"/>
<layer number="7" name="Route7" color="26" fill="1" visible="no" active="no"/>
<layer number="8" name="Route8" color="27" fill="1" visible="no" active="no"/>
<layer number="9" name="Route9" color="28" fill="1" visible="no" active="no"/>
<layer number="10" name="Route10" color="29" fill="1" visible="no" active="no"/>
<layer number="11" name="Route11" color="30" fill="1" visible="no" active="no"/>
<layer number="12" name="Route12" color="20" fill="1" visible="no" active="no"/>
<layer number="13" name="Route13" color="21" fill="1" visible="no" active="no"/>
<layer number="14" name="Route14" color="22" fill="1" visible="no" active="no"/>
<layer number="15" name="Route15" color="23" fill="1" visible="no" active="no"/>
<layer number="16" name="Bottom" color="1" fill="1" visible="no" active="no"/>
<layer number="17" name="Pads" color="2" fill="1" visible="no" active="no"/>
<layer number="18" name="Vias" color="2" fill="1" visible="no" active="no"/>
<layer number="19" name="Unrouted" color="6" fill="1" visible="no" active="no"/>
<layer number="20" name="Dimension" color="24" fill="1" visible="no" active="no"/>
<layer number="21" name="tPlace" color="7" fill="1" visible="no" active="no"/>
<layer number="22" name="bPlace" color="7" fill="1" visible="no" active="no"/>
<layer number="23" name="tOrigins" color="15" fill="1" visible="no" active="no"/>
<layer number="24" name="bOrigins" color="15" fill="1" visible="no" active="no"/>
<layer number="25" name="tNames" color="7" fill="1" visible="no" active="no"/>
<layer number="26" name="bNames" color="7" fill="1" visible="no" active="no"/>
<layer number="27" name="tValues" color="7" fill="1" visible="no" active="no"/>
<layer number="28" name="bValues" color="7" fill="1" visible="no" active="no"/>
<layer number="29" name="tStop" color="7" fill="3" visible="no" active="no"/>
<layer number="30" name="bStop" color="7" fill="6" visible="no" active="no"/>
<layer number="31" name="tCream" color="7" fill="4" visible="no" active="no"/>
<layer number="32" name="bCream" color="7" fill="5" visible="no" active="no"/>
<layer number="33" name="tFinish" color="6" fill="3" visible="no" active="no"/>
<layer number="34" name="bFinish" color="6" fill="6" visible="no" active="no"/>
<layer number="35" name="tGlue" color="7" fill="4" visible="no" active="no"/>
<layer number="36" name="bGlue" color="7" fill="5" visible="no" active="no"/>
<layer number="37" name="tTest" color="7" fill="1" visible="no" active="no"/>
<layer number="38" name="bTest" color="7" fill="1" visible="no" active="no"/>
<layer number="39" name="tKeepout" color="4" fill="11" visible="no" active="no"/>
<layer number="40" name="bKeepout" color="1" fill="11" visible="no" active="no"/>
<layer number="41" name="tRestrict" color="4" fill="10" visible="no" active="no"/>
<layer number="42" name="bRestrict" color="1" fill="10" visible="no" active="no"/>
<layer number="43" name="vRestrict" color="2" fill="10" visible="no" active="no"/>
<layer number="44" name="Drills" color="7" fill="1" visible="no" active="no"/>
<layer number="45" name="Holes" color="7" fill="1" visible="no" active="no"/>
<layer number="46" name="Milling" color="3" fill="1" visible="no" active="no"/>
<layer number="47" name="Measures" color="7" fill="1" visible="no" active="no"/>
<layer number="48" name="Document" color="7" fill="1" visible="no" active="no"/>
<layer number="49" name="Reference" color="7" fill="1" visible="no" active="no"/>
<layer number="50" name="dxf" color="7" fill="1" visible="no" active="no"/>
<layer number="51" name="tDocu" color="7" fill="1" visible="no" active="no"/>
<layer number="52" name="bDocu" color="7" fill="1" visible="no" active="no"/>
<layer number="53" name="tGND_GNDA" color="7" fill="9" visible="no" active="no"/>
<layer number="54" name="bGND_GNDA" color="1" fill="9" visible="no" active="no"/>
<layer number="56" name="wert" color="7" fill="1" visible="no" active="no"/>
<layer number="57" name="tCAD" color="7" fill="1" visible="no" active="no"/>
<layer number="59" name="tCarbon" color="7" fill="1" visible="no" active="no"/>
<layer number="60" name="bCarbon" color="7" fill="1" visible="no" active="no"/>
<layer number="88" name="SimResults" color="9" fill="1" visible="yes" active="yes"/>
<layer number="89" name="SimProbes" color="9" fill="1" visible="yes" active="yes"/>
<layer number="90" name="Modules" color="5" fill="1" visible="yes" active="yes"/>
<layer number="91" name="Nets" color="2" fill="1" visible="yes" active="yes"/>
<layer number="92" name="Busses" color="1" fill="1" visible="yes" active="yes"/>
<layer number="93" name="Pins" color="2" fill="1" visible="no" active="yes"/>
<layer number="94" name="Symbols" color="4" fill="1" visible="yes" active="yes"/>
<layer number="95" name="Names" color="7" fill="1" visible="yes" active="yes"/>
<layer number="96" name="Values" color="7" fill="1" visible="yes" active="yes"/>
<layer number="97" name="Info" color="7" fill="1" visible="yes" active="yes"/>
<layer number="98" name="Guide" color="6" fill="1" visible="yes" active="yes"/>
<layer number="99" name="SpiceOrder" color="7" fill="1" visible="no" active="no"/>
<layer number="100" name="Muster" color="7" fill="1" visible="no" active="no"/>
<layer number="101" name="Patch_Top" color="12" fill="4" visible="no" active="yes"/>
<layer number="102" name="Vscore" color="7" fill="1" visible="no" active="yes"/>
<layer number="103" name="fp3" color="7" fill="1" visible="no" active="yes"/>
<layer number="104" name="Name" color="7" fill="1" visible="no" active="yes"/>
<layer number="105" name="Beschreib" color="9" fill="1" visible="no" active="yes"/>
<layer number="106" name="BGA-Top" color="4" fill="1" visible="no" active="yes"/>
<layer number="107" name="BD-Top" color="5" fill="1" visible="no" active="yes"/>
<layer number="108" name="fp8" color="7" fill="1" visible="no" active="yes"/>
<layer number="109" name="fp9" color="7" fill="1" visible="no" active="yes"/>
<layer number="110" name="fp0" color="7" fill="1" visible="no" active="yes"/>
<layer number="111" name="LPC17xx" color="7" fill="1" visible="no" active="yes"/>
<layer number="112" name="tSilk" color="7" fill="1" visible="no" active="yes"/>
<layer number="113" name="ReferenceLS" color="7" fill="1" visible="no" active="no"/>
<layer number="116" name="Patch_BOT" color="9" fill="4" visible="no" active="yes"/>
<layer number="118" name="Rect_Pads" color="7" fill="1" visible="no" active="no"/>
<layer number="121" name="_tsilk" color="7" fill="1" visible="no" active="yes"/>
<layer number="122" name="_bsilk" color="7" fill="1" visible="no" active="yes"/>
<layer number="123" name="tTestmark" color="7" fill="1" visible="no" active="yes"/>
<layer number="124" name="bTestmark" color="7" fill="1" visible="no" active="yes"/>
<layer number="125" name="_tNames" color="7" fill="1" visible="no" active="yes"/>
<layer number="126" name="_bNames" color="7" fill="1" visible="no" active="yes"/>
<layer number="127" name="_tValues" color="7" fill="1" visible="no" active="yes"/>
<layer number="128" name="_bValues" color="7" fill="1" visible="no" active="yes"/>
<layer number="129" name="Mask" color="7" fill="1" visible="yes" active="yes"/>
<layer number="131" name="tAdjust" color="7" fill="1" visible="no" active="yes"/>
<layer number="132" name="bAdjust" color="7" fill="1" visible="no" active="yes"/>
<layer number="144" name="Drill_legend" color="7" fill="1" visible="no" active="yes"/>
<layer number="150" name="Notes" color="7" fill="1" visible="no" active="yes"/>
<layer number="151" name="HeatSink" color="7" fill="1" visible="no" active="yes"/>
<layer number="152" name="_bDocu" color="7" fill="1" visible="no" active="yes"/>
<layer number="153" name="FabDoc1" color="6" fill="1" visible="no" active="no"/>
<layer number="154" name="FabDoc2" color="2" fill="1" visible="no" active="no"/>
<layer number="155" name="FabDoc3" color="7" fill="15" visible="no" active="no"/>
<layer number="199" name="Contour" color="7" fill="1" visible="no" active="yes"/>
<layer number="200" name="200bmp" color="1" fill="10" visible="no" active="yes"/>
<layer number="201" name="201bmp" color="2" fill="1" visible="no" active="no"/>
<layer number="202" name="202bmp" color="3" fill="1" visible="no" active="no"/>
<layer number="203" name="203bmp" color="4" fill="10" visible="no" active="yes"/>
<layer number="204" name="204bmp" color="5" fill="10" visible="no" active="yes"/>
<layer number="205" name="205bmp" color="6" fill="10" visible="no" active="yes"/>
<layer number="206" name="206bmp" color="7" fill="10" visible="no" active="yes"/>
<layer number="207" name="207bmp" color="8" fill="10" visible="no" active="yes"/>
<layer number="208" name="208bmp" color="9" fill="10" visible="no" active="yes"/>
<layer number="209" name="209bmp" color="7" fill="1" visible="no" active="yes"/>
<layer number="210" name="210bmp" color="7" fill="1" visible="no" active="yes"/>
<layer number="211" name="211bmp" color="7" fill="1" visible="no" active="yes"/>
<layer number="212" name="212bmp" color="7" fill="1" visible="no" active="yes"/>
<layer number="213" name="213bmp" color="7" fill="1" visible="no" active="yes"/>
<layer number="214" name="214bmp" color="7" fill="1" visible="no" active="yes"/>
<layer number="215" name="215bmp" color="7" fill="1" visible="no" active="yes"/>
<layer number="216" name="216bmp" color="7" fill="1" visible="no" active="yes"/>
<layer number="217" name="217bmp" color="18" fill="1" visible="no" active="no"/>
<layer number="218" name="218bmp" color="19" fill="1" visible="no" active="no"/>
<layer number="219" name="219bmp" color="20" fill="1" visible="no" active="no"/>
<layer number="220" name="220bmp" color="21" fill="1" visible="no" active="no"/>
<layer number="221" name="221bmp" color="22" fill="1" visible="no" active="no"/>
<layer number="222" name="222bmp" color="23" fill="1" visible="no" active="no"/>
<layer number="223" name="223bmp" color="24" fill="1" visible="no" active="no"/>
<layer number="224" name="224bmp" color="25" fill="1" visible="no" active="no"/>
<layer number="225" name="225bmp" color="7" fill="1" visible="yes" active="yes"/>
<layer number="226" name="226bmp" color="7" fill="1" visible="yes" active="yes"/>
<layer number="227" name="227bmp" color="7" fill="1" visible="yes" active="yes"/>
<layer number="228" name="228bmp" color="7" fill="1" visible="yes" active="yes"/>
<layer number="229" name="229bmp" color="7" fill="1" visible="yes" active="yes"/>
<layer number="230" name="230bmp" color="7" fill="1" visible="yes" active="yes"/>
<layer number="231" name="Eagle3D_PG1" color="7" fill="1" visible="no" active="no"/>
<layer number="232" name="Eagle3D_PG2" color="7" fill="1" visible="no" active="no"/>
<layer number="233" name="Eagle3D_PG3" color="7" fill="1" visible="no" active="no"/>
<layer number="248" name="Housing" color="7" fill="1" visible="no" active="yes"/>
<layer number="249" name="Edge" color="7" fill="1" visible="no" active="yes"/>
<layer number="250" name="Descript" color="7" fill="1" visible="no" active="no"/>
<layer number="251" name="SMDround" color="7" fill="1" visible="no" active="no"/>
<layer number="254" name="cooling" color="7" fill="1" visible="no" active="yes"/>
<layer number="255" name="routoute" color="7" fill="1" visible="yes" active="yes"/>
</layers>
<schematic xreflabel="%F%N/%S.%C%R" xrefpart="/%S.%C%R">
<libraries>
<library name="LCD_SAA">
<packages>
<package name="ARDUINOR3" urn="urn:adsk.eagle:footprint:6240234/1">
<description>The new Arduino R3 'classic' adds duplicate I2C pins and an IORef pin (and an unused pin</description>
<wire x1="0" y1="0" x2="66.04" y2="0" width="0" layer="20"/>
<wire x1="66.04" y1="0" x2="66.04" y2="2.54" width="0" layer="20"/>
<wire x1="66.04" y1="2.54" x2="68.58" y2="5.08" width="0" layer="20"/>
<wire x1="68.58" y1="5.08" x2="68.58" y2="37.846" width="0" layer="20"/>
<wire x1="68.58" y1="37.846" x2="66.04" y2="40.386" width="0" layer="20"/>
<wire x1="66.04" y1="40.386" x2="66.04" y2="51.816" width="0" layer="20"/>
<wire x1="66.04" y1="51.816" x2="64.516" y2="53.34" width="0" layer="20"/>
<wire x1="64.516" y1="53.34" x2="0" y2="53.34" width="0" layer="20"/>
<wire x1="0" y1="53.34" x2="0" y2="0" width="0" layer="20"/>
<circle x="15.24" y="50.8" radius="1.796" width="0.127" layer="51"/>
<circle x="13.97" y="2.54" radius="1.796" width="0.127" layer="51"/>
<circle x="66.04" y="35.56" radius="1.796" width="0.127" layer="51"/>
<circle x="66.04" y="7.62" radius="1.796" width="0.127" layer="51"/>
<pad name="D4" x="53.34" y="50.8" drill="1" diameter="1.6764" shape="octagon"/>
<pad name="A0" x="50.8" y="2.54" drill="1" diameter="1.6764" shape="octagon"/>
<pad name="D3" x="55.88" y="50.8" drill="1" diameter="1.6764" shape="octagon"/>
<pad name="D2" x="58.42" y="50.8" drill="1" diameter="1.6764" shape="octagon"/>
<pad name="D1" x="60.96" y="50.8" drill="1" diameter="1.6764" shape="octagon"/>
<pad name="D0" x="63.5" y="50.8" drill="1" diameter="1.6764" shape="octagon"/>
<pad name="D5" x="50.8" y="50.8" drill="1" diameter="1.6764" shape="octagon"/>
<pad name="D6" x="48.26" y="50.8" drill="1" diameter="1.6764" shape="octagon"/>
<pad name="D7" x="45.72" y="50.8" drill="1" diameter="1.6764" shape="octagon"/>
<pad name="D8" x="41.656" y="50.8" drill="1" diameter="1.6764" shape="octagon"/>
<pad name="D9" x="39.116" y="50.8" drill="1" diameter="1.6764" shape="octagon"/>
<pad name="D10" x="36.576" y="50.8" drill="1" diameter="1.6764" shape="octagon"/>
<pad name="D11" x="34.036" y="50.8" drill="1" diameter="1.6764" shape="octagon"/>
<pad name="D12" x="31.496" y="50.8" drill="1" diameter="1.6764" shape="octagon"/>
<pad name="D13" x="28.956" y="50.8" drill="1" diameter="1.6764" shape="octagon"/>
<pad name="GND" x="26.416" y="50.8" drill="1" diameter="1.6764" shape="octagon"/>
<pad name="AREF" x="23.876" y="50.8" drill="1" diameter="1.6764" shape="octagon"/>
<pad name="A1" x="53.34" y="2.54" drill="1" diameter="1.6764" shape="octagon"/>
<pad name="A2" x="55.88" y="2.54" drill="1" diameter="1.6764" shape="octagon"/>
<pad name="A3" x="58.42" y="2.54" drill="1" diameter="1.6764" shape="octagon"/>
<pad name="A4" x="60.96" y="2.54" drill="1" diameter="1.6764" shape="octagon"/>
<pad name="A5" x="63.5" y="2.54" drill="1" diameter="1.6764" shape="octagon"/>
<pad name="VIN" x="45.72" y="2.54" drill="1" diameter="1.6764" shape="octagon"/>
<pad name="GND1" x="43.18" y="2.54" drill="1" diameter="1.6764" shape="octagon"/>
<pad name="GND2" x="40.64" y="2.54" drill="1" diameter="1.6764" shape="octagon"/>
<pad name="5V" x="38.1" y="2.54" drill="1" diameter="1.6764" shape="octagon"/>
<pad name="3V" x="35.56" y="2.54" drill="1" diameter="1.6764" shape="octagon"/>
<pad name="RESET" x="33.02" y="2.54" drill="1" diameter="1.6764" shape="octagon"/>
<pad name="SDA" x="21.336" y="50.8" drill="1" diameter="1.6764" shape="octagon"/>
<pad name="SCL" x="18.796" y="50.8" drill="1" diameter="1.6764" shape="octagon"/>
<pad name="IOREF" x="30.48" y="2.54" drill="1" diameter="1.6764" shape="octagon"/>
<pad name="RESERVED" x="27.94" y="2.54" drill="1" diameter="1.6764" shape="octagon"/>
<text x="31.7399" y="0.254" size="1.016" layer="21" font="vector">RST</text>
<text x="34.7523" y="3.81" size="1.016" layer="21" font="vector">3v</text>
<text x="37.5463" y="3.81" size="1.016" layer="21" font="vector">5v</text>
<text x="40.7771" y="3.81" size="1.016" layer="21" font="vector">Gnd</text>
<text x="44.7853" y="3.81" size="1.016" layer="21" font="vector">Vin</text>
<text x="54.1121" y="0.4623" size="1.016" layer="21" font="vector">Analog In</text>
<text x="50.419" y="3.81" size="1.016" layer="21" font="vector">0</text>
<text x="52.959" y="3.81" size="1.016" layer="21" font="vector">1</text>
<text x="55.499" y="3.81" size="1.016" layer="21" font="vector">2</text>
<text x="58.039" y="3.81" size="1.016" layer="21" font="vector">3</text>
<text x="60.579" y="3.81" size="1.016" layer="21" font="vector">4</text>
<text x="63.119" y="3.81" size="1.016" layer="21" font="vector">5</text>
<text x="22.225" y="48.514" size="1.016" layer="21" font="vector">ARef</text>
<text x="25.146" y="52.07" size="1.016" layer="21" font="vector">Gnd</text>
<text x="30.099" y="49.53" size="1.016" layer="21" font="vector" rot="R180">13</text>
<text x="32.639" y="49.53" size="1.016" layer="21" font="vector" rot="R180">12</text>
<text x="35.179" y="49.53" size="1.016" layer="21" font="vector" rot="R180">11</text>
<text x="37.719" y="49.53" size="1.016" layer="21" font="vector" rot="R180">10</text>
<text x="39.751" y="49.53" size="1.016" layer="21" font="vector" rot="R180">9</text>
<text x="42.291" y="49.53" size="1.016" layer="21" font="vector" rot="R180">8</text>
<text x="46.355" y="49.53" size="1.016" layer="21" font="vector" rot="R180">7</text>
<text x="48.895" y="49.53" size="1.016" layer="21" font="vector" rot="R180">6</text>
<text x="51.435" y="49.53" size="1.016" layer="21" font="vector" rot="R180">5</text>
<text x="53.975" y="49.53" size="1.016" layer="21" font="vector" rot="R180">4</text>
<text x="56.515" y="49.53" size="1.016" layer="21" font="vector" rot="R180">3</text>
<text x="59.055" y="49.53" size="1.016" layer="21" font="vector" rot="R180">2</text>
<text x="61.595" y="49.53" size="1.016" layer="21" font="vector" rot="R180">1</text>
<text x="64.135" y="49.53" size="1.016" layer="21" font="vector" rot="R180">0</text>
<text x="31.623" y="52.07" size="1.016" layer="21" font="vector">Digital I/O</text>
<text x="50.927" y="52.07" size="1.016" layer="21" font="vector">Digital I/O</text>
<text x="17.653" y="48.514" size="1.016" layer="21" font="vector">SCL</text>
<text x="19.939" y="52.07" size="1.016" layer="21" font="vector">SDA</text>
<text x="29.4539" y="3.81" size="1.016" layer="21" font="vector">IOr</text>
</package>
<package name="ARDUINOR3-BPLACE" urn="urn:adsk.eagle:footprint:6240236/1">
<wire x1="0" y1="0" x2="66.04" y2="0" width="0" layer="22"/>
<wire x1="66.04" y1="0" x2="66.04" y2="2.54" width="0" layer="22"/>
<wire x1="66.04" y1="2.54" x2="68.58" y2="5.08" width="0" layer="22"/>
<wire x1="68.58" y1="5.08" x2="68.58" y2="37.846" width="0" layer="22"/>
<wire x1="68.58" y1="37.846" x2="66.04" y2="40.386" width="0" layer="22"/>
<wire x1="66.04" y1="40.386" x2="66.04" y2="51.816" width="0" layer="22"/>
<wire x1="66.04" y1="51.816" x2="64.516" y2="53.34" width="0" layer="22"/>
<wire x1="64.516" y1="53.34" x2="0" y2="53.34" width="0" layer="22"/>
<wire x1="0" y1="53.34" x2="0" y2="0" width="0" layer="22"/>
<circle x="15.24" y="50.8" radius="1.796" width="0.127" layer="51"/>
<circle x="13.97" y="2.54" radius="1.796" width="0.127" layer="51"/>
<circle x="66.04" y="35.56" radius="1.796" width="0.127" layer="51"/>
<circle x="66.04" y="7.62" radius="1.796" width="0.127" layer="51"/>
<pad name="D4" x="53.34" y="50.8" drill="1" diameter="1.6764" shape="octagon"/>
<pad name="A0" x="50.8" y="2.54" drill="1" diameter="1.6764" shape="octagon"/>
<pad name="D3" x="55.88" y="50.8" drill="1" diameter="1.6764" shape="octagon"/>
<pad name="D2" x="58.42" y="50.8" drill="1" diameter="1.6764" shape="octagon"/>
<pad name="D1" x="60.96" y="50.8" drill="1" diameter="1.6764" shape="octagon"/>
<pad name="D0" x="63.5" y="50.8" drill="1" diameter="1.6764" shape="octagon"/>
<pad name="D5" x="50.8" y="50.8" drill="1" diameter="1.6764" shape="octagon"/>
<pad name="D6" x="48.26" y="50.8" drill="1" diameter="1.6764" shape="octagon"/>
<pad name="D7" x="45.72" y="50.8" drill="1" diameter="1.6764" shape="octagon"/>
<pad name="D8" x="41.656" y="50.8" drill="1" diameter="1.6764" shape="octagon"/>
<pad name="D9" x="39.116" y="50.8" drill="1" diameter="1.6764" shape="octagon"/>
<pad name="D10" x="36.576" y="50.8" drill="1" diameter="1.6764" shape="octagon"/>
<pad name="D11" x="34.036" y="50.8" drill="1" diameter="1.6764" shape="octagon"/>
<pad name="D12" x="31.496" y="50.8" drill="1" diameter="1.6764" shape="octagon"/>
<pad name="D13" x="28.956" y="50.8" drill="1" diameter="1.6764" shape="octagon"/>
<pad name="GND" x="26.416" y="50.8" drill="1" diameter="1.6764" shape="octagon"/>
<pad name="AREF" x="23.876" y="50.8" drill="1" diameter="1.6764" shape="octagon"/>
<pad name="A1" x="53.34" y="2.54" drill="1" diameter="1.6764" shape="octagon"/>
<pad name="A2" x="55.88" y="2.54" drill="1" diameter="1.6764" shape="octagon"/>
<pad name="A3" x="58.42" y="2.54" drill="1" diameter="1.6764" shape="octagon"/>
<pad name="A4" x="60.96" y="2.54" drill="1" diameter="1.6764" shape="octagon"/>
<pad name="A5" x="63.5" y="2.54" drill="1" diameter="1.6764" shape="octagon"/>
<pad name="VIN" x="45.72" y="2.54" drill="1" diameter="1.6764" shape="octagon"/>
<pad name="GND1" x="43.18" y="2.54" drill="1" diameter="1.6764" shape="octagon"/>
<pad name="GND2" x="40.64" y="2.54" drill="1" diameter="1.6764" shape="octagon"/>
<pad name="5V" x="38.1" y="2.54" drill="1" diameter="1.6764" shape="octagon"/>
<pad name="3V" x="35.56" y="2.54" drill="1" diameter="1.6764" shape="octagon"/>
<pad name="RESET" x="33.02" y="2.54" drill="1" diameter="1.6764" shape="octagon"/>
<pad name="SDA" x="21.336" y="50.8" drill="1" diameter="1.6764" shape="octagon"/>
<pad name="SCL" x="18.796" y="50.8" drill="1" diameter="1.6764" shape="octagon"/>
<pad name="IOREF" x="30.48" y="2.54" drill="1" diameter="1.6764" shape="octagon"/>
<pad name="RESERVED" x="27.94" y="2.54" drill="1" diameter="1.6764" shape="octagon"/>
<text x="33.528" y="3.7999" size="1.016" layer="21" font="vector" rot="R90">RST</text>
<text x="34.7523" y="3.81" size="1.016" layer="21" font="vector">3v</text>
<text x="37.5463" y="3.81" size="1.016" layer="21" font="vector">5v</text>
<text x="40.7771" y="3.81" size="1.016" layer="21" font="vector">Gnd</text>
<text x="44.7853" y="3.81" size="1.016" layer="21" font="vector">Vin</text>
<text x="54.1121" y="0.4623" size="1.016" layer="21" font="vector">Analog In</text>
<text x="50.419" y="3.81" size="1.016" layer="21" font="vector">0</text>
<text x="52.959" y="3.81" size="1.016" layer="21" font="vector">1</text>
<text x="55.499" y="3.81" size="1.016" layer="21" font="vector">2</text>
<text x="58.039" y="3.81" size="1.016" layer="21" font="vector">3</text>
<text x="60.579" y="3.81" size="1.016" layer="21" font="vector">4</text>
<text x="63.119" y="3.81" size="1.016" layer="21" font="vector">5</text>
<text x="23.368" y="49.911" size="1.016" layer="21" font="vector" rot="R270">ARef</text>
<text x="25.908" y="49.784" size="1.016" layer="21" font="vector" rot="R270">gnd</text>
<text x="30.099" y="49.53" size="1.016" layer="21" font="vector" rot="R180">13</text>
<text x="32.639" y="49.53" size="1.016" layer="21" font="vector" rot="R180">12</text>
<text x="35.179" y="49.53" size="1.016" layer="21" font="vector" rot="R180">11</text>
<text x="37.719" y="49.53" size="1.016" layer="21" font="vector" rot="R180">10</text>
<text x="39.751" y="49.53" size="1.016" layer="21" font="vector" rot="R180">9</text>
<text x="42.291" y="49.53" size="1.016" layer="21" font="vector" rot="R180">8</text>
<text x="46.355" y="49.53" size="1.016" layer="21" font="vector" rot="R180">7</text>
<text x="48.895" y="49.53" size="1.016" layer="21" font="vector" rot="R180">6</text>
<text x="51.435" y="49.53" size="1.016" layer="21" font="vector" rot="R180">5</text>
<text x="53.975" y="49.53" size="1.016" layer="21" font="vector" rot="R180">4</text>
<text x="56.515" y="49.53" size="1.016" layer="21" font="vector" rot="R180">3</text>
<text x="59.055" y="49.53" size="1.016" layer="21" font="vector" rot="R180">2</text>
<text x="61.595" y="49.53" size="1.016" layer="21" font="vector" rot="R180">1</text>
<text x="64.135" y="49.53" size="1.016" layer="21" font="vector" rot="R180">0</text>
<text x="31.623" y="52.07" size="1.016" layer="21" font="vector">Digital I/O</text>
<text x="50.927" y="52.07" size="1.016" layer="21" font="vector">Digital I/O</text>
<text x="18.288" y="49.911" size="1.016" layer="21" font="vector" rot="R270">SCL</text>
<text x="20.828" y="49.911" size="1.016" layer="21" font="vector" rot="R270">SDA</text>
<text x="30.988" y="3.7999" size="1.016" layer="21" font="vector" rot="R90">IOr</text>
</package>
<package name="1X03" urn="urn:adsk.eagle:footprint:22340/1">
<description>&lt;b&gt;PIN HEADER&lt;/b&gt;</description>
<wire x1="-3.175" y1="1.27" x2="-1.905" y2="1.27" width="0.1524" layer="21"/>
<wire x1="-1.905" y1="1.27" x2="-1.27" y2="0.635" width="0.1524" layer="21"/>
<wire x1="-1.27" y1="0.635" x2="-1.27" y2="-0.635" width="0.1524" layer="21"/>
<wire x1="-1.27" y1="-0.635" x2="-1.905" y2="-1.27" width="0.1524" layer="21"/>
<wire x1="-1.27" y1="0.635" x2="-0.635" y2="1.27" width="0.1524" layer="21"/>
<wire x1="-0.635" y1="1.27" x2="0.635" y2="1.27" width="0.1524" layer="21"/>
<wire x1="0.635" y1="1.27" x2="1.27" y2="0.635" width="0.1524" layer="21"/>
<wire x1="1.27" y1="0.635" x2="1.27" y2="-0.635" width="0.1524" layer="21"/>
<wire x1="1.27" y1="-0.635" x2="0.635" y2="-1.27" width="0.1524" layer="21"/>
<wire x1="0.635" y1="-1.27" x2="-0.635" y2="-1.27" width="0.1524" layer="21"/>
<wire x1="-0.635" y1="-1.27" x2="-1.27" y2="-0.635" width="0.1524" layer="21"/>
<wire x1="-3.81" y1="0.635" x2="-3.81" y2="-0.635" width="0.1524" layer="21"/>
<wire x1="-3.175" y1="1.27" x2="-3.81" y2="0.635" width="0.1524" layer="21"/>
<wire x1="-3.81" y1="-0.635" x2="-3.175" y2="-1.27" width="0.1524" layer="21"/>
<wire x1="-1.905" y1="-1.27" x2="-3.175" y2="-1.27" width="0.1524" layer="21"/>
<wire x1="1.27" y1="0.635" x2="1.905" y2="1.27" width="0.1524" layer="21"/>
<wire x1="1.905" y1="1.27" x2="3.175" y2="1.27" width="0.1524" layer="21"/>
<wire x1="3.175" y1="1.27" x2="3.81" y2="0.635" width="0.1524" layer="21"/>
<wire x1="3.81" y1="0.635" x2="3.81" y2="-0.635" width="0.1524" layer="21"/>
<wire x1="3.81" y1="-0.635" x2="3.175" y2="-1.27" width="0.1524" layer="21"/>
<wire x1="3.175" y1="-1.27" x2="1.905" y2="-1.27" width="0.1524" layer="21"/>
<wire x1="1.905" y1="-1.27" x2="1.27" y2="-0.635" width="0.1524" layer="21"/>
<pad name="1" x="-2.54" y="0" drill="1.016" shape="long" rot="R90"/>
<pad name="2" x="0" y="0" drill="1.016" shape="long" rot="R90"/>
<pad name="3" x="2.54" y="0" drill="1.016" shape="long" rot="R90"/>
<text x="-3.8862" y="1.8288" size="1.27" layer="25" ratio="10">&gt;NAME</text>
<text x="-3.81" y="-3.175" size="1.27" layer="27">&gt;VALUE</text>
<rectangle x1="-0.254" y1="-0.254" x2="0.254" y2="0.254" layer="51"/>
<rectangle x1="-2.794" y1="-0.254" x2="-2.286" y2="0.254" layer="51"/>
<rectangle x1="2.286" y1="-0.254" x2="2.794" y2="0.254" layer="51"/>
</package>
<package name="1X04" urn="urn:adsk.eagle:footprint:22258/1">
<description>&lt;b&gt;PIN HEADER&lt;/b&gt;</description>
<wire x1="0" y1="0.635" x2="0.635" y2="1.27" width="0.1524" layer="21"/>
<wire x1="0.635" y1="1.27" x2="1.905" y2="1.27" width="0.1524" layer="21"/>
<wire x1="1.905" y1="1.27" x2="2.54" y2="0.635" width="0.1524" layer="21"/>
<wire x1="2.54" y1="0.635" x2="2.54" y2="-0.635" width="0.1524" layer="21"/>
<wire x1="2.54" y1="-0.635" x2="1.905" y2="-1.27" width="0.1524" layer="21"/>
<wire x1="1.905" y1="-1.27" x2="0.635" y2="-1.27" width="0.1524" layer="21"/>
<wire x1="0.635" y1="-1.27" x2="0" y2="-0.635" width="0.1524" layer="21"/>
<wire x1="-4.445" y1="1.27" x2="-3.175" y2="1.27" width="0.1524" layer="21"/>
<wire x1="-3.175" y1="1.27" x2="-2.54" y2="0.635" width="0.1524" layer="21"/>
<wire x1="-2.54" y1="0.635" x2="-2.54" y2="-0.635" width="0.1524" layer="21"/>
<wire x1="-2.54" y1="-0.635" x2="-3.175" y2="-1.27" width="0.1524" layer="21"/>
<wire x1="-2.54" y1="0.635" x2="-1.905" y2="1.27" width="0.1524" layer="21"/>
<wire x1="-1.905" y1="1.27" x2="-0.635" y2="1.27" width="0.1524" layer="21"/>
<wire x1="-0.635" y1="1.27" x2="0" y2="0.635" width="0.1524" layer="21"/>
<wire x1="0" y1="0.635" x2="0" y2="-0.635" width="0.1524" layer="21"/>
<wire x1="0" y1="-0.635" x2="-0.635" y2="-1.27" width="0.1524" layer="21"/>
<wire x1="-0.635" y1="-1.27" x2="-1.905" y2="-1.27" width="0.1524" layer="21"/>
<wire x1="-1.905" y1="-1.27" x2="-2.54" y2="-0.635" width="0.1524" layer="21"/>
<wire x1="-5.08" y1="0.635" x2="-5.08" y2="-0.635" width="0.1524" layer="21"/>
<wire x1="-4.445" y1="1.27" x2="-5.08" y2="0.635" width="0.1524" layer="21"/>
<wire x1="-5.08" y1="-0.635" x2="-4.445" y2="-1.27" width="0.1524" layer="21"/>
<wire x1="-3.175" y1="-1.27" x2="-4.445" y2="-1.27" width="0.1524" layer="21"/>
<wire x1="3.175" y1="1.27" x2="4.445" y2="1.27" width="0.1524" layer="21"/>
<wire x1="4.445" y1="1.27" x2="5.08" y2="0.635" width="0.1524" layer="21"/>
<wire x1="5.08" y1="0.635" x2="5.08" y2="-0.635" width="0.1524" layer="21"/>
<wire x1="5.08" y1="-0.635" x2="4.445" y2="-1.27" width="0.1524" layer="21"/>
<wire x1="3.175" y1="1.27" x2="2.54" y2="0.635" width="0.1524" layer="21"/>
<wire x1="2.54" y1="-0.635" x2="3.175" y2="-1.27" width="0.1524" layer="21"/>
<wire x1="4.445" y1="-1.27" x2="3.175" y2="-1.27" width="0.1524" layer="21"/>
<pad name="1" x="-3.81" y="0" drill="1.016" shape="long" rot="R90"/>
<pad name="2" x="-1.27" y="0" drill="1.016" shape="long" rot="R90"/>
<pad name="3" x="1.27" y="0" drill="1.016" shape="long" rot="R90"/>
<pad name="4" x="3.81" y="0" drill="1.016" shape="long" rot="R90"/>
<text x="-5.1562" y="1.8288" size="1.27" layer="25" ratio="10">&gt;NAME</text>
<text x="-5.08" y="-3.175" size="1.27" layer="27">&gt;VALUE</text>
<rectangle x1="1.016" y1="-0.254" x2="1.524" y2="0.254" layer="51"/>
<rectangle x1="-1.524" y1="-0.254" x2="-1.016" y2="0.254" layer="51"/>
<rectangle x1="-4.064" y1="-0.254" x2="-3.556" y2="0.254" layer="51"/>
<rectangle x1="3.556" y1="-0.254" x2="4.064" y2="0.254" layer="51"/>
</package>
<package name="1X16" urn="urn:adsk.eagle:footprint:22297/1">
<description>&lt;b&gt;PIN HEADER&lt;/b&gt;</description>
<wire x1="15.24" y1="0.635" x2="15.875" y2="1.27" width="0.1524" layer="21"/>
<wire x1="15.875" y1="1.27" x2="17.145" y2="1.27" width="0.1524" layer="21"/>
<wire x1="17.145" y1="1.27" x2="17.78" y2="0.635" width="0.1524" layer="21"/>
<wire x1="17.78" y1="0.635" x2="17.78" y2="-0.635" width="0.1524" layer="21"/>
<wire x1="17.78" y1="-0.635" x2="17.145" y2="-1.27" width="0.1524" layer="21"/>
<wire x1="17.145" y1="-1.27" x2="15.875" y2="-1.27" width="0.1524" layer="21"/>
<wire x1="15.875" y1="-1.27" x2="15.24" y2="-0.635" width="0.1524" layer="21"/>
<wire x1="10.795" y1="1.27" x2="12.065" y2="1.27" width="0.1524" layer="21"/>
<wire x1="12.065" y1="1.27" x2="12.7" y2="0.635" width="0.1524" layer="21"/>
<wire x1="12.7" y1="0.635" x2="12.7" y2="-0.635" width="0.1524" layer="21"/>
<wire x1="12.7" y1="-0.635" x2="12.065" y2="-1.27" width="0.1524" layer="21"/>
<wire x1="12.7" y1="0.635" x2="13.335" y2="1.27" width="0.1524" layer="21"/>
<wire x1="13.335" y1="1.27" x2="14.605" y2="1.27" width="0.1524" layer="21"/>
<wire x1="14.605" y1="1.27" x2="15.24" y2="0.635" width="0.1524" layer="21"/>
<wire x1="15.24" y1="0.635" x2="15.24" y2="-0.635" width="0.1524" layer="21"/>
<wire x1="15.24" y1="-0.635" x2="14.605" y2="-1.27" width="0.1524" layer="21"/>
<wire x1="14.605" y1="-1.27" x2="13.335" y2="-1.27" width="0.1524" layer="21"/>
<wire x1="13.335" y1="-1.27" x2="12.7" y2="-0.635" width="0.1524" layer="21"/>
<wire x1="7.62" y1="0.635" x2="8.255" y2="1.27" width="0.1524" layer="21"/>
<wire x1="8.255" y1="1.27" x2="9.525" y2="1.27" width="0.1524" layer="21"/>
<wire x1="9.525" y1="1.27" x2="10.16" y2="0.635" width="0.1524" layer="21"/>
<wire x1="10.16" y1="0.635" x2="10.16" y2="-0.635" width="0.1524" layer="21"/>
<wire x1="10.16" y1="-0.635" x2="9.525" y2="-1.27" width="0.1524" layer="21"/>
<wire x1="9.525" y1="-1.27" x2="8.255" y2="-1.27" width="0.1524" layer="21"/>
<wire x1="8.255" y1="-1.27" x2="7.62" y2="-0.635" width="0.1524" layer="21"/>
<wire x1="10.795" y1="1.27" x2="10.16" y2="0.635" width="0.1524" layer="21"/>
<wire x1="10.16" y1="-0.635" x2="10.795" y2="-1.27" width="0.1524" layer="21"/>
<wire x1="12.065" y1="-1.27" x2="10.795" y2="-1.27" width="0.1524" layer="21"/>
<wire x1="3.175" y1="1.27" x2="4.445" y2="1.27" width="0.1524" layer="21"/>
<wire x1="4.445" y1="1.27" x2="5.08" y2="0.635" width="0.1524" layer="21"/>
<wire x1="5.08" y1="0.635" x2="5.08" y2="-0.635" width="0.1524" layer="21"/>
<wire x1="5.08" y1="-0.635" x2="4.445" y2="-1.27" width="0.1524" layer="21"/>
<wire x1="5.08" y1="0.635" x2="5.715" y2="1.27" width="0.1524" layer="21"/>
<wire x1="5.715" y1="1.27" x2="6.985" y2="1.27" width="0.1524" layer="21"/>
<wire x1="6.985" y1="1.27" x2="7.62" y2="0.635" width="0.1524" layer="21"/>
<wire x1="7.62" y1="0.635" x2="7.62" y2="-0.635" width="0.1524" layer="21"/>
<wire x1="7.62" y1="-0.635" x2="6.985" y2="-1.27" width="0.1524" layer="21"/>
<wire x1="6.985" y1="-1.27" x2="5.715" y2="-1.27" width="0.1524" layer="21"/>
<wire x1="5.715" y1="-1.27" x2="5.08" y2="-0.635" width="0.1524" layer="21"/>
<wire x1="0" y1="0.635" x2="0.635" y2="1.27" width="0.1524" layer="21"/>
<wire x1="0.635" y1="1.27" x2="1.905" y2="1.27" width="0.1524" layer="21"/>
<wire x1="1.905" y1="1.27" x2="2.54" y2="0.635" width="0.1524" layer="21"/>
<wire x1="2.54" y1="0.635" x2="2.54" y2="-0.635" width="0.1524" layer="21"/>
<wire x1="2.54" y1="-0.635" x2="1.905" y2="-1.27" width="0.1524" layer="21"/>
<wire x1="1.905" y1="-1.27" x2="0.635" y2="-1.27" width="0.1524" layer="21"/>
<wire x1="0.635" y1="-1.27" x2="0" y2="-0.635" width="0.1524" layer="21"/>
<wire x1="3.175" y1="1.27" x2="2.54" y2="0.635" width="0.1524" layer="21"/>
<wire x1="2.54" y1="-0.635" x2="3.175" y2="-1.27" width="0.1524" layer="21"/>
<wire x1="4.445" y1="-1.27" x2="3.175" y2="-1.27" width="0.1524" layer="21"/>
<wire x1="-4.445" y1="1.27" x2="-3.175" y2="1.27" width="0.1524" layer="21"/>
<wire x1="-3.175" y1="1.27" x2="-2.54" y2="0.635" width="0.1524" layer="21"/>
<wire x1="-2.54" y1="0.635" x2="-2.54" y2="-0.635" width="0.1524" layer="21"/>
<wire x1="-2.54" y1="-0.635" x2="-3.175" y2="-1.27" width="0.1524" layer="21"/>
<wire x1="-2.54" y1="0.635" x2="-1.905" y2="1.27" width="0.1524" layer="21"/>
<wire x1="-1.905" y1="1.27" x2="-0.635" y2="1.27" width="0.1524" layer="21"/>
<wire x1="-0.635" y1="1.27" x2="0" y2="0.635" width="0.1524" layer="21"/>
<wire x1="0" y1="0.635" x2="0" y2="-0.635" width="0.1524" layer="21"/>
<wire x1="0" y1="-0.635" x2="-0.635" y2="-1.27" width="0.1524" layer="21"/>
<wire x1="-0.635" y1="-1.27" x2="-1.905" y2="-1.27" width="0.1524" layer="21"/>
<wire x1="-1.905" y1="-1.27" x2="-2.54" y2="-0.635" width="0.1524" layer="21"/>
<wire x1="-7.62" y1="0.635" x2="-6.985" y2="1.27" width="0.1524" layer="21"/>
<wire x1="-6.985" y1="1.27" x2="-5.715" y2="1.27" width="0.1524" layer="21"/>
<wire x1="-5.715" y1="1.27" x2="-5.08" y2="0.635" width="0.1524" layer="21"/>
<wire x1="-5.08" y1="0.635" x2="-5.08" y2="-0.635" width="0.1524" layer="21"/>
<wire x1="-5.08" y1="-0.635" x2="-5.715" y2="-1.27" width="0.1524" layer="21"/>
<wire x1="-5.715" y1="-1.27" x2="-6.985" y2="-1.27" width="0.1524" layer="21"/>
<wire x1="-6.985" y1="-1.27" x2="-7.62" y2="-0.635" width="0.1524" layer="21"/>
<wire x1="-4.445" y1="1.27" x2="-5.08" y2="0.635" width="0.1524" layer="21"/>
<wire x1="-5.08" y1="-0.635" x2="-4.445" y2="-1.27" width="0.1524" layer="21"/>
<wire x1="-3.175" y1="-1.27" x2="-4.445" y2="-1.27" width="0.1524" layer="21"/>
<wire x1="-12.065" y1="1.27" x2="-10.795" y2="1.27" width="0.1524" layer="21"/>
<wire x1="-10.795" y1="1.27" x2="-10.16" y2="0.635" width="0.1524" layer="21"/>
<wire x1="-10.16" y1="0.635" x2="-10.16" y2="-0.635" width="0.1524" layer="21"/>
<wire x1="-10.16" y1="-0.635" x2="-10.795" y2="-1.27" width="0.1524" layer="21"/>
<wire x1="-10.16" y1="0.635" x2="-9.525" y2="1.27" width="0.1524" layer="21"/>
<wire x1="-9.525" y1="1.27" x2="-8.255" y2="1.27" width="0.1524" layer="21"/>
<wire x1="-8.255" y1="1.27" x2="-7.62" y2="0.635" width="0.1524" layer="21"/>
<wire x1="-7.62" y1="0.635" x2="-7.62" y2="-0.635" width="0.1524" layer="21"/>
<wire x1="-7.62" y1="-0.635" x2="-8.255" y2="-1.27" width="0.1524" layer="21"/>
<wire x1="-8.255" y1="-1.27" x2="-9.525" y2="-1.27" width="0.1524" layer="21"/>
<wire x1="-9.525" y1="-1.27" x2="-10.16" y2="-0.635" width="0.1524" layer="21"/>
<wire x1="-15.24" y1="0.635" x2="-14.605" y2="1.27" width="0.1524" layer="21"/>
<wire x1="-14.605" y1="1.27" x2="-13.335" y2="1.27" width="0.1524" layer="21"/>
<wire x1="-13.335" y1="1.27" x2="-12.7" y2="0.635" width="0.1524" layer="21"/>
<wire x1="-12.7" y1="0.635" x2="-12.7" y2="-0.635" width="0.1524" layer="21"/>
<wire x1="-12.7" y1="-0.635" x2="-13.335" y2="-1.27" width="0.1524" layer="21"/>
<wire x1="-13.335" y1="-1.27" x2="-14.605" y2="-1.27" width="0.1524" layer="21"/>
<wire x1="-14.605" y1="-1.27" x2="-15.24" y2="-0.635" width="0.1524" layer="21"/>
<wire x1="-12.065" y1="1.27" x2="-12.7" y2="0.635" width="0.1524" layer="21"/>
<wire x1="-12.7" y1="-0.635" x2="-12.065" y2="-1.27" width="0.1524" layer="21"/>
<wire x1="-10.795" y1="-1.27" x2="-12.065" y2="-1.27" width="0.1524" layer="21"/>
<wire x1="-19.685" y1="1.27" x2="-18.415" y2="1.27" width="0.1524" layer="21"/>
<wire x1="-18.415" y1="1.27" x2="-17.78" y2="0.635" width="0.1524" layer="21"/>
<wire x1="-17.78" y1="0.635" x2="-17.78" y2="-0.635" width="0.1524" layer="21"/>
<wire x1="-17.78" y1="-0.635" x2="-18.415" y2="-1.27" width="0.1524" layer="21"/>
<wire x1="-17.78" y1="0.635" x2="-17.145" y2="1.27" width="0.1524" layer="21"/>
<wire x1="-17.145" y1="1.27" x2="-15.875" y2="1.27" width="0.1524" layer="21"/>
<wire x1="-15.875" y1="1.27" x2="-15.24" y2="0.635" width="0.1524" layer="21"/>
<wire x1="-15.24" y1="0.635" x2="-15.24" y2="-0.635" width="0.1524" layer="21"/>
<wire x1="-15.24" y1="-0.635" x2="-15.875" y2="-1.27" width="0.1524" layer="21"/>
<wire x1="-15.875" y1="-1.27" x2="-17.145" y2="-1.27" width="0.1524" layer="21"/>
<wire x1="-17.145" y1="-1.27" x2="-17.78" y2="-0.635" width="0.1524" layer="21"/>
<wire x1="-20.32" y1="0.635" x2="-20.32" y2="-0.635" width="0.1524" layer="21"/>
<wire x1="-19.685" y1="1.27" x2="-20.32" y2="0.635" width="0.1524" layer="21"/>
<wire x1="-20.32" y1="-0.635" x2="-19.685" y2="-1.27" width="0.1524" layer="21"/>
<wire x1="-18.415" y1="-1.27" x2="-19.685" y2="-1.27" width="0.1524" layer="21"/>
<wire x1="17.78" y1="0.635" x2="18.415" y2="1.27" width="0.1524" layer="21"/>
<wire x1="18.415" y1="1.27" x2="19.685" y2="1.27" width="0.1524" layer="21"/>
<wire x1="19.685" y1="1.27" x2="20.32" y2="0.635" width="0.1524" layer="21"/>
<wire x1="20.32" y1="0.635" x2="20.32" y2="-0.635" width="0.1524" layer="21"/>
<wire x1="20.32" y1="-0.635" x2="19.685" y2="-1.27" width="0.1524" layer="21"/>
<wire x1="19.685" y1="-1.27" x2="18.415" y2="-1.27" width="0.1524" layer="21"/>
<wire x1="18.415" y1="-1.27" x2="17.78" y2="-0.635" width="0.1524" layer="21"/>
<pad name="1" x="-19.05" y="0" drill="1.016" shape="long" rot="R90"/>
<pad name="2" x="-16.51" y="0" drill="1.016" shape="long" rot="R90"/>
<pad name="3" x="-13.97" y="0" drill="1.016" shape="long" rot="R90"/>
<pad name="4" x="-11.43" y="0" drill="1.016" shape="long" rot="R90"/>
<pad name="5" x="-8.89" y="0" drill="1.016" shape="long" rot="R90"/>
<pad name="6" x="-6.35" y="0" drill="1.016" shape="long" rot="R90"/>
<pad name="7" x="-3.81" y="0" drill="1.016" shape="long" rot="R90"/>
<pad name="8" x="-1.27" y="0" drill="1.016" shape="long" rot="R90"/>
<pad name="9" x="1.27" y="0" drill="1.016" shape="long" rot="R90"/>
<pad name="10" x="3.81" y="0" drill="1.016" shape="long" rot="R90"/>
<pad name="11" x="6.35" y="0" drill="1.016" shape="long" rot="R90"/>
<pad name="12" x="8.89" y="0" drill="1.016" shape="long" rot="R90"/>
<pad name="13" x="11.43" y="0" drill="1.016" shape="long" rot="R90"/>
<pad name="14" x="13.97" y="0" drill="1.016" shape="long" rot="R90"/>
<pad name="15" x="16.51" y="0" drill="1.016" shape="long" rot="R90"/>
<pad name="16" x="19.05" y="0" drill="1.016" shape="long" rot="R90"/>
<text x="-20.3962" y="1.8288" size="1.27" layer="25" ratio="10">&gt;NAME</text>
<text x="-20.32" y="-3.175" size="1.27" layer="27">&gt;VALUE</text>
<rectangle x1="16.256" y1="-0.254" x2="16.764" y2="0.254" layer="51"/>
<rectangle x1="13.716" y1="-0.254" x2="14.224" y2="0.254" layer="51"/>
<rectangle x1="11.176" y1="-0.254" x2="11.684" y2="0.254" layer="51"/>
<rectangle x1="8.636" y1="-0.254" x2="9.144" y2="0.254" layer="51"/>
<rectangle x1="6.096" y1="-0.254" x2="6.604" y2="0.254" layer="51"/>
<rectangle x1="3.556" y1="-0.254" x2="4.064" y2="0.254" layer="51"/>
<rectangle x1="1.016" y1="-0.254" x2="1.524" y2="0.254" layer="51"/>
<rectangle x1="-1.524" y1="-0.254" x2="-1.016" y2="0.254" layer="51"/>
<rectangle x1="-4.064" y1="-0.254" x2="-3.556" y2="0.254" layer="51"/>
<rectangle x1="-6.604" y1="-0.254" x2="-6.096" y2="0.254" layer="51"/>
<rectangle x1="-9.144" y1="-0.254" x2="-8.636" y2="0.254" layer="51"/>
<rectangle x1="-11.684" y1="-0.254" x2="-11.176" y2="0.254" layer="51"/>
<rectangle x1="-14.224" y1="-0.254" x2="-13.716" y2="0.254" layer="51"/>
<rectangle x1="-16.764" y1="-0.254" x2="-16.256" y2="0.254" layer="51"/>
<rectangle x1="-19.304" y1="-0.254" x2="-18.796" y2="0.254" layer="51"/>
<rectangle x1="18.796" y1="-0.254" x2="19.304" y2="0.254" layer="51"/>
</package>
<package name="0204/5" urn="urn:adsk.eagle:footprint:6239949/1">
<description>&lt;b&gt;RESISTOR&lt;/b&gt;&lt;p&gt;
type 0204, grid 5 mm</description>
<wire x1="2.54" y1="0" x2="2.032" y2="0" width="0.508" layer="51"/>
<wire x1="-2.54" y1="0" x2="-2.032" y2="0" width="0.508" layer="51"/>
<wire x1="-1.778" y1="0.635" x2="-1.524" y2="0.889" width="0.1524" layer="21" curve="-90" cap="flat"/>
<wire x1="-1.778" y1="-0.635" x2="-1.524" y2="-0.889" width="0.1524" layer="21" curve="90" cap="flat"/>
<wire x1="1.524" y1="-0.889" x2="1.778" y2="-0.635" width="0.1524" layer="21" curve="90" cap="flat"/>
<wire x1="1.524" y1="0.889" x2="1.778" y2="0.635" width="0.1524" layer="21" curve="-90" cap="flat"/>
<wire x1="-1.778" y1="-0.635" x2="-1.778" y2="0.635" width="0.1524" layer="51"/>
<wire x1="-1.524" y1="0.889" x2="-1.27" y2="0.889" width="0.1524" layer="21"/>
<wire x1="-1.143" y1="0.762" x2="-1.27" y2="0.889" width="0.1524" layer="21"/>
<wire x1="-1.524" y1="-0.889" x2="-1.27" y2="-0.889" width="0.1524" layer="21"/>
<wire x1="-1.143" y1="-0.762" x2="-1.27" y2="-0.889" width="0.1524" layer="21"/>
<wire x1="1.143" y1="0.762" x2="1.27" y2="0.889" width="0.1524" layer="21"/>
<wire x1="1.143" y1="0.762" x2="-1.143" y2="0.762" width="0.1524" layer="21"/>
<wire x1="1.143" y1="-0.762" x2="1.27" y2="-0.889" width="0.1524" layer="21"/>
<wire x1="1.143" y1="-0.762" x2="-1.143" y2="-0.762" width="0.1524" layer="21"/>
<wire x1="1.524" y1="0.889" x2="1.27" y2="0.889" width="0.1524" layer="21"/>
<wire x1="1.524" y1="-0.889" x2="1.27" y2="-0.889" width="0.1524" layer="21"/>
<wire x1="1.778" y1="-0.635" x2="1.778" y2="0.635" width="0.1524" layer="51"/>
<pad name="1" x="-2.54" y="0" drill="0.8128" diameter="1.6764" shape="octagon"/>
<pad name="2" x="2.54" y="0" drill="0.8128" diameter="1.6764" shape="octagon"/>
<text x="-2.0066" y="1.1684" size="0.9906" layer="25" ratio="12">&gt;NAME</text>
<text x="-2.1336" y="-2.3114" size="0.9906" layer="27" ratio="12">&gt;VALUE</text>
<rectangle x1="-2.032" y1="-0.254" x2="-1.778" y2="0.254" layer="51"/>
<rectangle x1="1.778" y1="-0.254" x2="2.032" y2="0.254" layer="51"/>
</package>
</packages>
<packages3d>
<package3d name="ARDUINOR3" urn="urn:adsk.eagle:package:6240877/1" type="box">
<description>The new Arduino R3 'classic' adds duplicate I2C pins and an IORef pin (and an unused pin</description>
<packageinstances>
<packageinstance name="ARDUINOR3"/>
</packageinstances>
</package3d>
<package3d name="ARDUINOR3-BPLACE" urn="urn:adsk.eagle:package:6240879/1" type="box">
<packageinstances>
<packageinstance name="ARDUINOR3-BPLACE"/>
</packageinstances>
</package3d>
<package3d name="1X03" urn="urn:adsk.eagle:package:22458/2" type="model">
<description>PIN HEADER</description>
<packageinstances>
<packageinstance name="1X03"/>
</packageinstances>
</package3d>
<package3d name="1X04" urn="urn:adsk.eagle:package:22407/2" type="model">
<description>PIN HEADER</description>
<packageinstances>
<packageinstance name="1X04"/>
</packageinstances>
</package3d>
<package3d name="1X16" urn="urn:adsk.eagle:package:22432/2" type="model">
<description>PIN HEADER</description>
<packageinstances>
<packageinstance name="1X16"/>
</packageinstances>
</package3d>
<package3d name="0204/5" urn="urn:adsk.eagle:package:6240595/1" type="box">
<description>&lt;b&gt;RESISTOR&lt;/b&gt;&lt;p&gt;
type 0204, grid 5 mm</description>
<packageinstances>
<packageinstance name="0204/5"/>
</packageinstances>
</package3d>
</packages3d>
<symbols>
<symbol name="ARDUINOR3">
<wire x1="-33.02" y1="25.4" x2="-33.02" y2="-25.4" width="0.254" layer="94"/>
<wire x1="-33.02" y1="-25.4" x2="25.4" y2="-25.4" width="0.254" layer="94"/>
<wire x1="25.4" y1="-25.4" x2="25.4" y2="-22.86" width="0.254" layer="94"/>
<wire x1="25.4" y1="-22.86" x2="30.48" y2="-17.78" width="0.254" layer="94"/>
<wire x1="30.48" y1="-17.78" x2="30.48" y2="7.62" width="0.254" layer="94"/>
<wire x1="30.48" y1="7.62" x2="25.4" y2="12.7" width="0.254" layer="94"/>
<wire x1="25.4" y1="12.7" x2="25.4" y2="22.86" width="0.254" layer="94"/>
<wire x1="25.4" y1="22.86" x2="22.86" y2="25.4" width="0.254" layer="94"/>
<wire x1="22.86" y1="25.4" x2="-33.02" y2="25.4" width="0.254" layer="94"/>
<wire x1="-25.4" y1="17.78" x2="-25.4" y2="-10.16" width="0.254" layer="94" style="shortdash"/>
<wire x1="-25.4" y1="-10.16" x2="22.86" y2="-10.16" width="0.254" layer="94" style="shortdash"/>
<wire x1="22.86" y1="-10.16" x2="22.86" y2="-15.24" width="0.254" layer="94" style="shortdash"/>
<wire x1="-22.86" y1="17.78" x2="-22.86" y2="-7.62" width="0.254" layer="94" style="shortdash"/>
<wire x1="-22.86" y1="-7.62" x2="20.32" y2="-7.62" width="0.254" layer="94" style="shortdash"/>
<wire x1="20.32" y1="-7.62" x2="20.32" y2="-15.24" width="0.254" layer="94" style="shortdash"/>
<text x="-17.78" y="2.54" size="5.08" layer="94">ARDUINO</text>
<text x="-10.16" y="-2.54" size="2.54" layer="94">UNO R3</text>
<pin name="D0" x="20.32" y="30.48" visible="pin" length="middle" rot="R270"/>
<pin name="D1" x="17.78" y="30.48" visible="pin" length="middle" rot="R270"/>
<pin name="D2" x="15.24" y="30.48" visible="pin" length="middle" rot="R270"/>
<pin name="D3" x="12.7" y="30.48" visible="pin" length="middle" rot="R270"/>
<pin name="D4" x="10.16" y="30.48" visible="pin" length="middle" rot="R270"/>
<pin name="D5" x="7.62" y="30.48" visible="pin" length="middle" rot="R270"/>
<pin name="D6" x="5.08" y="30.48" visible="pin" length="middle" rot="R270"/>
<pin name="D7" x="2.54" y="30.48" visible="pin" length="middle" rot="R270"/>
<pin name="D8" x="-2.54" y="30.48" visible="pin" length="middle" rot="R270"/>
<pin name="D9" x="-5.08" y="30.48" visible="pin" length="middle" rot="R270"/>
<pin name="D10" x="-7.62" y="30.48" visible="pin" length="middle" rot="R270"/>
<pin name="D11" x="-10.16" y="30.48" visible="pin" length="middle" rot="R270"/>
<pin name="D12" x="-12.7" y="30.48" visible="pin" length="middle" rot="R270"/>
<pin name="D13" x="-15.24" y="30.48" visible="pin" length="middle" rot="R270"/>
<pin name="GND" x="-17.78" y="30.48" visible="pin" length="middle" direction="pwr" rot="R270"/>
<pin name="AREF" x="-20.32" y="30.48" visible="pin" length="middle" rot="R270"/>
<pin name="A5/SCL" x="22.86" y="-30.48" visible="pin" length="middle" rot="R90"/>
<pin name="A4/SDA" x="20.32" y="-30.48" visible="pin" length="middle" rot="R90"/>
<pin name="A3" x="17.78" y="-30.48" visible="pin" length="middle" rot="R90"/>
<pin name="A2" x="15.24" y="-30.48" visible="pin" length="middle" rot="R90"/>
<pin name="A1" x="12.7" y="-30.48" visible="pin" length="middle" rot="R90"/>
<pin name="A0" x="10.16" y="-30.48" visible="pin" length="middle" rot="R90"/>
<pin name="VIN" x="5.08" y="-30.48" visible="pin" length="middle" direction="pwr" rot="R90"/>
<pin name="GND1" x="2.54" y="-30.48" visible="pin" length="middle" direction="pwr" rot="R90"/>
<pin name="GND2" x="0" y="-30.48" visible="pin" length="middle" direction="pwr" rot="R90"/>
<pin name="5V" x="-2.54" y="-30.48" visible="pin" length="middle" direction="pwr" rot="R90"/>
<pin name="3V" x="-5.08" y="-30.48" visible="pin" length="middle" direction="pwr" rot="R90"/>
<pin name="/RESET" x="-7.62" y="-30.48" visible="pin" length="middle" rot="R90"/>
<pin name="IOREF" x="-10.16" y="-30.48" visible="pin" length="middle" direction="out" rot="R90"/>
<pin name="RESERVED" x="-12.7" y="-30.48" visible="pin" length="middle" direction="nc" rot="R90"/>
<pin name="SCL" x="-25.4" y="30.48" visible="pin" length="middle" rot="R270"/>
<pin name="SDA" x="-22.86" y="30.48" visible="pin" length="middle" rot="R270"/>
</symbol>
<symbol name="PINHD3">
<wire x1="-6.35" y1="-5.08" x2="1.27" y2="-5.08" width="0.4064" layer="94"/>
<wire x1="1.27" y1="-5.08" x2="1.27" y2="5.08" width="0.4064" layer="94"/>
<wire x1="1.27" y1="5.08" x2="-6.35" y2="5.08" width="0.4064" layer="94"/>
<wire x1="-6.35" y1="5.08" x2="-6.35" y2="-5.08" width="0.4064" layer="94"/>
<text x="-6.35" y="5.715" size="1.778" layer="95">&gt;NAME</text>
<text x="-6.35" y="-7.62" size="1.778" layer="96">&gt;VALUE</text>
<pin name="1" x="-2.54" y="2.54" visible="pad" length="short" direction="pas" function="dot"/>
<pin name="2" x="-2.54" y="0" visible="pad" length="short" direction="pas" function="dot"/>
<pin name="3" x="-2.54" y="-2.54" visible="pad" length="short" direction="pas" function="dot"/>
</symbol>
<symbol name="PINHD4">
<wire x1="-6.35" y1="-5.08" x2="1.27" y2="-5.08" width="0.4064" layer="94"/>
<wire x1="1.27" y1="-5.08" x2="1.27" y2="7.62" width="0.4064" layer="94"/>
<wire x1="1.27" y1="7.62" x2="-6.35" y2="7.62" width="0.4064" layer="94"/>
<wire x1="-6.35" y1="7.62" x2="-6.35" y2="-5.08" width="0.4064" layer="94"/>
<text x="-6.35" y="8.255" size="1.778" layer="95">&gt;NAME</text>
<text x="-6.35" y="-7.62" size="1.778" layer="96">&gt;VALUE</text>
<pin name="1" x="-2.54" y="5.08" visible="pad" length="short" direction="pas" function="dot"/>
<pin name="2" x="-2.54" y="2.54" visible="pad" length="short" direction="pas" function="dot"/>
<pin name="3" x="-2.54" y="0" visible="pad" length="short" direction="pas" function="dot"/>
<pin name="4" x="-2.54" y="-2.54" visible="pad" length="short" direction="pas" function="dot"/>
</symbol>
<symbol name="PINHD16">
<wire x1="-6.35" y1="-22.86" x2="1.27" y2="-22.86" width="0.4064" layer="94"/>
<wire x1="1.27" y1="-22.86" x2="1.27" y2="20.32" width="0.4064" layer="94"/>
<wire x1="1.27" y1="20.32" x2="-6.35" y2="20.32" width="0.4064" layer="94"/>
<wire x1="-6.35" y1="20.32" x2="-6.35" y2="-22.86" width="0.4064" layer="94"/>
<text x="-6.35" y="20.955" size="1.778" layer="95">&gt;NAME</text>
<text x="-6.35" y="-25.4" size="1.778" layer="96">&gt;VALUE</text>
<pin name="1" x="-2.54" y="17.78" visible="pad" length="short" direction="pas" function="dot"/>
<pin name="2" x="-2.54" y="15.24" visible="pad" length="short" direction="pas" function="dot"/>
<pin name="3" x="-2.54" y="12.7" visible="pad" length="short" direction="pas" function="dot"/>
<pin name="4" x="-2.54" y="10.16" visible="pad" length="short" direction="pas" function="dot"/>
<pin name="5" x="-2.54" y="7.62" visible="pad" length="short" direction="pas" function="dot"/>
<pin name="6" x="-2.54" y="5.08" visible="pad" length="short" direction="pas" function="dot"/>
<pin name="7" x="-2.54" y="2.54" visible="pad" length="short" direction="pas" function="dot"/>
<pin name="8" x="-2.54" y="0" visible="pad" length="short" direction="pas" function="dot"/>
<pin name="9" x="-2.54" y="-2.54" visible="pad" length="short" direction="pas" function="dot"/>
<pin name="10" x="-2.54" y="-5.08" visible="pad" length="short" direction="pas" function="dot"/>
<pin name="11" x="-2.54" y="-7.62" visible="pad" length="short" direction="pas" function="dot"/>
<pin name="12" x="-2.54" y="-10.16" visible="pad" length="short" direction="pas" function="dot"/>
<pin name="13" x="-2.54" y="-12.7" visible="pad" length="short" direction="pas" function="dot"/>
<pin name="14" x="-2.54" y="-15.24" visible="pad" length="short" direction="pas" function="dot"/>
<pin name="15" x="-2.54" y="-17.78" visible="pad" length="short" direction="pas" function="dot"/>
<pin name="16" x="-2.54" y="-20.32" visible="pad" length="short" direction="pas" function="dot"/>
</symbol>
<symbol name="R-US">
<wire x1="-2.54" y1="0" x2="-2.159" y2="1.016" width="0.2032" layer="94"/>
<wire x1="-2.159" y1="1.016" x2="-1.524" y2="-1.016" width="0.2032" layer="94"/>
<wire x1="-1.524" y1="-1.016" x2="-0.889" y2="1.016" width="0.2032" layer="94"/>
<wire x1="-0.889" y1="1.016" x2="-0.254" y2="-1.016" width="0.2032" layer="94"/>
<wire x1="-0.254" y1="-1.016" x2="0.381" y2="1.016" width="0.2032" layer="94"/>
<wire x1="0.381" y1="1.016" x2="1.016" y2="-1.016" width="0.2032" layer="94"/>
<wire x1="1.016" y1="-1.016" x2="1.651" y2="1.016" width="0.2032" layer="94"/>
<wire x1="1.651" y1="1.016" x2="2.286" y2="-1.016" width="0.2032" layer="94"/>
<wire x1="2.286" y1="-1.016" x2="2.54" y2="0" width="0.2032" layer="94"/>
<text x="-3.81" y="1.4986" size="1.778" layer="95">&gt;NAME</text>
<text x="-3.81" y="-3.302" size="1.778" layer="96">&gt;VALUE</text>
<pin name="2" x="5.08" y="0" visible="off" length="short" direction="pas" swaplevel="1" rot="R180"/>
<pin name="1" x="-5.08" y="0" visible="off" length="short" direction="pas" swaplevel="1"/>
</symbol>
</symbols>
<devicesets>
<deviceset name="ARDUINOR3" prefix="U">
<description>This is a new object for the new Arduino R3 - with extra pins that you may want to use (such as IOref, and duplicated A4/A5</description>
<gates>
<gate name="G$1" symbol="ARDUINOR3" x="2.54" y="0"/>
</gates>
<devices>
<device name="-DIMENSION" package="ARDUINOR3">
<connects>
<connect gate="G$1" pin="/RESET" pad="RESET"/>
<connect gate="G$1" pin="3V" pad="3V"/>
<connect gate="G$1" pin="5V" pad="5V"/>
<connect gate="G$1" pin="A0" pad="A0"/>
<connect gate="G$1" pin="A1" pad="A1"/>
<connect gate="G$1" pin="A2" pad="A2"/>
<connect gate="G$1" pin="A3" pad="A3"/>
<connect gate="G$1" pin="A4/SDA" pad="A4"/>
<connect gate="G$1" pin="A5/SCL" pad="A5"/>
<connect gate="G$1" pin="AREF" pad="AREF"/>
<connect gate="G$1" pin="D0" pad="D0"/>
<connect gate="G$1" pin="D1" pad="D1"/>
<connect gate="G$1" pin="D10" pad="D10"/>
<connect gate="G$1" pin="D11" pad="D11"/>
<connect gate="G$1" pin="D12" pad="D12"/>
<connect gate="G$1" pin="D13" pad="D13"/>
<connect gate="G$1" pin="D2" pad="D2"/>
<connect gate="G$1" pin="D3" pad="D3"/>
<connect gate="G$1" pin="D4" pad="D4"/>
<connect gate="G$1" pin="D5" pad="D5"/>
<connect gate="G$1" pin="D6" pad="D6"/>
<connect gate="G$1" pin="D7" pad="D7"/>
<connect gate="G$1" pin="D8" pad="D8"/>
<connect gate="G$1" pin="D9" pad="D9"/>
<connect gate="G$1" pin="GND" pad="GND"/>
<connect gate="G$1" pin="GND1" pad="GND1"/>
<connect gate="G$1" pin="GND2" pad="GND2"/>
<connect gate="G$1" pin="IOREF" pad="IOREF"/>
<connect gate="G$1" pin="RESERVED" pad="RESERVED"/>
<connect gate="G$1" pin="SCL" pad="SCL"/>
<connect gate="G$1" pin="SDA" pad="SDA"/>
<connect gate="G$1" pin="VIN" pad="VIN"/>
</connects>
<package3dinstances>
<package3dinstance package3d_urn="urn:adsk.eagle:package:6240877/1"/>
</package3dinstances>
<technologies>
<technology name=""/>
</technologies>
</device>
<device name="-BPLACE" package="ARDUINOR3-BPLACE">
<connects>
<connect gate="G$1" pin="/RESET" pad="RESET"/>
<connect gate="G$1" pin="3V" pad="3V"/>
<connect gate="G$1" pin="5V" pad="5V"/>
<connect gate="G$1" pin="A0" pad="A0"/>
<connect gate="G$1" pin="A1" pad="A1"/>
<connect gate="G$1" pin="A2" pad="A2"/>
<connect gate="G$1" pin="A3" pad="A3"/>
<connect gate="G$1" pin="A4/SDA" pad="A4"/>
<connect gate="G$1" pin="A5/SCL" pad="A5"/>
<connect gate="G$1" pin="AREF" pad="AREF"/>
<connect gate="G$1" pin="D0" pad="D0"/>
<connect gate="G$1" pin="D1" pad="D1"/>
<connect gate="G$1" pin="D10" pad="D10"/>
<connect gate="G$1" pin="D11" pad="D11"/>
<connect gate="G$1" pin="D12" pad="D12"/>
<connect gate="G$1" pin="D13" pad="D13"/>
<connect gate="G$1" pin="D2" pad="D2"/>
<connect gate="G$1" pin="D3" pad="D3"/>
<connect gate="G$1" pin="D4" pad="D4"/>
<connect gate="G$1" pin="D5" pad="D5"/>
<connect gate="G$1" pin="D6" pad="D6"/>
<connect gate="G$1" pin="D7" pad="D7"/>
<connect gate="G$1" pin="D8" pad="D8"/>
<connect gate="G$1" pin="D9" pad="D9"/>
<connect gate="G$1" pin="GND" pad="GND"/>
<connect gate="G$1" pin="GND1" pad="GND1"/>
<connect gate="G$1" pin="GND2" pad="GND2"/>
<connect gate="G$1" pin="IOREF" pad="IOREF"/>
<connect gate="G$1" pin="RESERVED" pad="RESERVED"/>
<connect gate="G$1" pin="SCL" pad="SCL"/>
<connect gate="G$1" pin="SDA" pad="SDA"/>
<connect gate="G$1" pin="VIN" pad="VIN"/>
</connects>
<package3dinstances>
<package3dinstance package3d_urn="urn:adsk.eagle:package:6240879/1"/>
</package3dinstances>
<technologies>
<technology name=""/>
</technologies>
</device>
</devices>
</deviceset>
<deviceset name="PINHD-1X3" prefix="JP" uservalue="yes">
<description>&lt;b&gt;PIN HEADER&lt;/b&gt;</description>
<gates>
<gate name="A" symbol="PINHD3" x="0" y="0"/>
</gates>
<devices>
<device name="" package="1X03">
<connects>
<connect gate="A" pin="1" pad="1"/>
<connect gate="A" pin="2" pad="2"/>
<connect gate="A" pin="3" pad="3"/>
</connects>
<package3dinstances>
<package3dinstance package3d_urn="urn:adsk.eagle:package:22458/2"/>
</package3dinstances>
<technologies>
<technology name="">
<attribute name="POPULARITY" value="92" constant="no"/>
</technology>
</technologies>
</device>
</devices>
</deviceset>
<deviceset name="PINHD-1X4" prefix="JP" uservalue="yes">
<description>&lt;b&gt;PIN HEADER&lt;/b&gt;</description>
<gates>
<gate name="A" symbol="PINHD4" x="0" y="0"/>
</gates>
<devices>
<device name="" package="1X04">
<connects>
<connect gate="A" pin="1" pad="1"/>
<connect gate="A" pin="2" pad="2"/>
<connect gate="A" pin="3" pad="3"/>
<connect gate="A" pin="4" pad="4"/>
</connects>
<package3dinstances>
<package3dinstance package3d_urn="urn:adsk.eagle:package:22407/2"/>
</package3dinstances>
<technologies>
<technology name="">
<attribute name="POPULARITY" value="91" constant="no"/>
</technology>
</technologies>
</device>
</devices>
</deviceset>
<deviceset name="PINHD-1X16" prefix="JP" uservalue="yes">
<description>&lt;b&gt;PIN HEADER&lt;/b&gt;</description>
<gates>
<gate name="A" symbol="PINHD16" x="0" y="0"/>
</gates>
<devices>
<device name="" package="1X16">
<connects>
<connect gate="A" pin="1" pad="1"/>
<connect gate="A" pin="10" pad="10"/>
<connect gate="A" pin="11" pad="11"/>
<connect gate="A" pin="12" pad="12"/>
<connect gate="A" pin="13" pad="13"/>
<connect gate="A" pin="14" pad="14"/>
<connect gate="A" pin="15" pad="15"/>
<connect gate="A" pin="16" pad="16"/>
<connect gate="A" pin="2" pad="2"/>
<connect gate="A" pin="3" pad="3"/>
<connect gate="A" pin="4" pad="4"/>
<connect gate="A" pin="5" pad="5"/>
<connect gate="A" pin="6" pad="6"/>
<connect gate="A" pin="7" pad="7"/>
<connect gate="A" pin="8" pad="8"/>
<connect gate="A" pin="9" pad="9"/>
</connects>
<package3dinstances>
<package3dinstance package3d_urn="urn:adsk.eagle:package:22432/2"/>
</package3dinstances>
<technologies>
<technology name="">
<attribute name="POPULARITY" value="17" constant="no"/>
</technology>
</technologies>
</device>
</devices>
</deviceset>
<deviceset name="R-US_" prefix="R" uservalue="yes">
<description>&lt;B&gt;RESISTOR&lt;/B&gt;, American symbol</description>
<gates>
<gate name="G$1" symbol="R-US" x="0" y="0"/>
</gates>
<devices>
<device name="0204/5" package="0204/5">
<connects>
<connect gate="G$1" pin="1" pad="1"/>
<connect gate="G$1" pin="2" pad="2"/>
</connects>
<package3dinstances>
<package3dinstance package3d_urn="urn:adsk.eagle:package:6240595/1"/>
</package3dinstances>
<technologies>
<technology name=""/>
</technologies>
</device>
</devices>
</deviceset>
</devicesets>
</library>
</libraries>
<attributes>
</attributes>
<variantdefs>
</variantdefs>
<classes>
<class number="0" name="default" width="0" drill="0">
</class>
</classes>
<parts>
<part name="U1" library="LCD_SAA" deviceset="ARDUINOR3" device="-DIMENSION" package3d_urn="urn:adsk.eagle:package:6240877/1"/>
<part name="JP1" library="LCD_SAA" deviceset="PINHD-1X3" device="" package3d_urn="urn:adsk.eagle:package:22458/2"/>
<part name="JP2" library="LCD_SAA" deviceset="PINHD-1X3" device="" package3d_urn="urn:adsk.eagle:package:22458/2"/>
<part name="JP3" library="LCD_SAA" deviceset="PINHD-1X4" device="" package3d_urn="urn:adsk.eagle:package:22407/2"/>
<part name="JP4" library="LCD_SAA" deviceset="PINHD-1X16" device="" package3d_urn="urn:adsk.eagle:package:22432/2"/>
<part name="R1" library="LCD_SAA" deviceset="R-US_" device="0204/5" package3d_urn="urn:adsk.eagle:package:6240595/1"/>
<part name="R2" library="LCD_SAA" deviceset="R-US_" device="0204/5" package3d_urn="urn:adsk.eagle:package:6240595/1"/>
</parts>
<sheets>
<sheet>
<plain>
</plain>
<instances>
<instance part="U1" gate="G$1" x="45.72" y="35.56" smashed="yes" rot="R90"/>
<instance part="JP1" gate="A" x="139.7" y="58.42" smashed="yes" rot="R180">
<attribute name="NAME" x="146.05" y="52.705" size="1.778" layer="95" rot="R180"/>
<attribute name="VALUE" x="146.05" y="66.04" size="1.778" layer="96" rot="R180"/>
</instance>
<instance part="JP2" gate="A" x="139.7" y="40.64" smashed="yes" rot="R180">
<attribute name="NAME" x="146.05" y="34.925" size="1.778" layer="95" rot="R180"/>
<attribute name="VALUE" x="146.05" y="48.26" size="1.778" layer="96" rot="R180"/>
</instance>
<instance part="JP3" gate="A" x="139.7" y="20.32" smashed="yes" rot="R180">
<attribute name="NAME" x="146.05" y="12.065" size="1.778" layer="95" rot="R180"/>
<attribute name="VALUE" x="146.05" y="27.94" size="1.778" layer="96" rot="R180"/>
</instance>
<instance part="JP4" gate="A" x="101.6" y="35.56" smashed="yes" rot="R180">
<attribute name="NAME" x="107.95" y="14.605" size="1.778" layer="95" rot="R180"/>
<attribute name="VALUE" x="107.95" y="60.96" size="1.778" layer="96" rot="R180"/>
</instance>
<instance part="R1" gate="G$1" x="78.74" y="96.52" smashed="yes">
<attribute name="NAME" x="74.93" y="98.0186" size="1.778" layer="95"/>
<attribute name="VALUE" x="74.93" y="93.218" size="1.778" layer="96"/>
</instance>
<instance part="R2" gate="G$1" x="43.18" y="96.52" smashed="yes">
<attribute name="NAME" x="39.37" y="98.0186" size="1.778" layer="95"/>
<attribute name="VALUE" x="39.37" y="93.218" size="1.778" layer="96"/>
</instance>
</instances>
<busses>
</busses>
<nets>
<net name="GND" class="0">
<segment>
<pinref part="U1" gate="G$1" pin="GND1"/>
<wire x1="76.2" y1="38.1" x2="81.28" y2="38.1" width="0.1524" layer="91"/>
<label x="76.2" y="38.1" size="1.778" layer="95"/>
</segment>
<segment>
<pinref part="JP4" gate="A" pin="1"/>
<wire x1="104.14" y1="17.78" x2="96.52" y2="17.78" width="0.1524" layer="91"/>
<label x="96.52" y="17.78" size="1.778" layer="95"/>
</segment>
<segment>
<pinref part="JP2" gate="A" pin="1"/>
<wire x1="142.24" y1="38.1" x2="134.62" y2="38.1" width="0.1524" layer="91"/>
<label x="134.62" y="38.1" size="1.778" layer="95"/>
</segment>
<segment>
<pinref part="JP1" gate="A" pin="1"/>
<wire x1="142.24" y1="55.88" x2="134.62" y2="55.88" width="0.1524" layer="91"/>
<label x="134.62" y="55.88" size="1.778" layer="95"/>
</segment>
<segment>
<pinref part="JP3" gate="A" pin="2"/>
<wire x1="142.24" y1="17.78" x2="134.62" y2="17.78" width="0.1524" layer="91"/>
<label x="134.62" y="17.78" size="1.778" layer="95"/>
</segment>
</net>
<net name="5V" class="0">
<segment>
<pinref part="U1" gate="G$1" pin="5V"/>
<wire x1="76.2" y1="33.02" x2="81.28" y2="33.02" width="0.1524" layer="91"/>
<label x="78.74" y="33.02" size="1.778" layer="95"/>
</segment>
<segment>
<pinref part="JP4" gate="A" pin="2"/>
<wire x1="104.14" y1="20.32" x2="96.52" y2="20.32" width="0.1524" layer="91"/>
<label x="96.52" y="20.32" size="1.778" layer="95"/>
</segment>
<segment>
<pinref part="R2" gate="G$1" pin="1"/>
<wire x1="38.1" y1="96.52" x2="27.94" y2="96.52" width="0.1524" layer="91"/>
<label x="27.94" y="96.52" size="1.778" layer="95"/>
</segment>
<segment>
<pinref part="JP2" gate="A" pin="3"/>
<wire x1="142.24" y1="43.18" x2="134.62" y2="43.18" width="0.1524" layer="91"/>
<label x="134.62" y="43.18" size="1.778" layer="95"/>
</segment>
<segment>
<pinref part="JP1" gate="A" pin="3"/>
<wire x1="142.24" y1="60.96" x2="134.62" y2="60.96" width="0.1524" layer="91"/>
<label x="134.62" y="60.96" size="1.778" layer="95"/>
</segment>
<segment>
<pinref part="R1" gate="G$1" pin="1"/>
<wire x1="73.66" y1="96.52" x2="68.58" y2="96.52" width="0.1524" layer="91"/>
<label x="68.58" y="96.52" size="1.778" layer="95"/>
</segment>
<segment>
<pinref part="JP3" gate="A" pin="1"/>
<wire x1="142.24" y1="15.24" x2="134.62" y2="15.24" width="0.1524" layer="91"/>
</segment>
</net>
<net name="DB7" class="0">
<segment>
<pinref part="U1" gate="G$1" pin="D2"/>
<wire x1="15.24" y1="50.8" x2="10.16" y2="50.8" width="0.1524" layer="91"/>
<label x="10.16" y="50.8" size="1.778" layer="95"/>
</segment>
<segment>
<pinref part="JP4" gate="A" pin="14"/>
<wire x1="104.14" y1="50.8" x2="96.52" y2="50.8" width="0.1524" layer="91"/>
<label x="96.52" y="50.8" size="1.778" layer="95"/>
</segment>
</net>
<net name="DB6" class="0">
<segment>
<pinref part="U1" gate="G$1" pin="D3"/>
<wire x1="15.24" y1="48.26" x2="10.16" y2="48.26" width="0.1524" layer="91"/>
<label x="10.16" y="48.26" size="1.778" layer="95"/>
</segment>
<segment>
<pinref part="JP4" gate="A" pin="13"/>
<wire x1="104.14" y1="48.26" x2="96.52" y2="48.26" width="0.1524" layer="91"/>
<label x="96.52" y="48.26" size="1.778" layer="95"/>
</segment>
</net>
<net name="DB5" class="0">
<segment>
<pinref part="U1" gate="G$1" pin="D4"/>
<wire x1="15.24" y1="45.72" x2="10.16" y2="45.72" width="0.1524" layer="91"/>
<label x="10.16" y="45.72" size="1.778" layer="95"/>
</segment>
<segment>
<pinref part="JP4" gate="A" pin="12"/>
<wire x1="104.14" y1="45.72" x2="96.52" y2="45.72" width="0.1524" layer="91"/>
<label x="96.52" y="45.72" size="1.778" layer="95"/>
</segment>
</net>
<net name="DB4" class="0">
<segment>
<pinref part="U1" gate="G$1" pin="D5"/>
<wire x1="15.24" y1="43.18" x2="10.16" y2="43.18" width="0.1524" layer="91"/>
<label x="10.16" y="43.18" size="1.778" layer="95"/>
</segment>
<segment>
<pinref part="JP4" gate="A" pin="11"/>
<wire x1="104.14" y1="43.18" x2="96.52" y2="43.18" width="0.1524" layer="91"/>
<label x="96.52" y="43.18" size="1.778" layer="95"/>
</segment>
</net>
<net name="DHT" class="0">
<segment>
<pinref part="U1" gate="G$1" pin="D7"/>
<wire x1="15.24" y1="38.1" x2="10.16" y2="38.1" width="0.1524" layer="91"/>
<label x="10.16" y="38.1" size="1.778" layer="95"/>
</segment>
<segment>
<pinref part="JP2" gate="A" pin="2"/>
<wire x1="142.24" y1="40.64" x2="134.62" y2="40.64" width="0.1524" layer="91"/>
<label x="134.62" y="40.64" size="1.778" layer="95"/>
</segment>
</net>
<net name="A0" class="0">
<segment>
<pinref part="U1" gate="G$1" pin="A0"/>
<wire x1="76.2" y1="45.72" x2="81.28" y2="45.72" width="0.1524" layer="91"/>
<label x="78.74" y="45.72" size="1.778" layer="95"/>
</segment>
<segment>
<pinref part="JP3" gate="A" pin="4"/>
<wire x1="142.24" y1="22.86" x2="134.62" y2="22.86" width="0.1524" layer="91"/>
<label x="134.62" y="22.86" size="1.778" layer="95"/>
</segment>
</net>
<net name="E" class="0">
<segment>
<pinref part="U1" gate="G$1" pin="D11"/>
<wire x1="15.24" y1="25.4" x2="10.16" y2="25.4" width="0.1524" layer="91"/>
<label x="10.16" y="25.4" size="1.778" layer="95"/>
</segment>
<segment>
<pinref part="JP4" gate="A" pin="6"/>
<wire x1="104.14" y1="30.48" x2="96.52" y2="30.48" width="0.1524" layer="91"/>
<label x="96.52" y="30.48" size="1.778" layer="95"/>
</segment>
</net>
<net name="RS" class="0">
<segment>
<pinref part="U1" gate="G$1" pin="D12"/>
<wire x1="15.24" y1="22.86" x2="10.16" y2="22.86" width="0.1524" layer="91"/>
<label x="10.16" y="22.86" size="1.778" layer="95"/>
</segment>
<segment>
<pinref part="JP4" gate="A" pin="4"/>
<wire x1="104.14" y1="25.4" x2="96.52" y2="25.4" width="0.1524" layer="91"/>
<label x="96.52" y="25.4" size="1.778" layer="95"/>
</segment>
</net>
<net name="LED-" class="0">
<segment>
<pinref part="JP4" gate="A" pin="16"/>
<wire x1="104.14" y1="55.88" x2="96.52" y2="55.88" width="0.1524" layer="91"/>
<label x="96.52" y="55.88" size="1.778" layer="95"/>
</segment>
<segment>
<pinref part="R1" gate="G$1" pin="2"/>
<wire x1="83.82" y1="96.52" x2="88.9" y2="96.52" width="0.1524" layer="91"/>
<label x="86.36" y="96.52" size="1.778" layer="95"/>
</segment>
</net>
<net name="LED+" class="0">
<segment>
<pinref part="JP4" gate="A" pin="15"/>
<wire x1="104.14" y1="53.34" x2="96.52" y2="53.34" width="0.1524" layer="91"/>
<label x="96.52" y="53.34" size="1.778" layer="95"/>
</segment>
<segment>
<pinref part="R2" gate="G$1" pin="2"/>
<wire x1="48.26" y1="96.52" x2="58.42" y2="96.52" width="0.1524" layer="91"/>
<label x="53.34" y="96.52" size="1.778" layer="95"/>
</segment>
</net>
<net name="V0" class="0">
<segment>
<pinref part="JP4" gate="A" pin="3"/>
<wire x1="104.14" y1="22.86" x2="96.52" y2="22.86" width="0.1524" layer="91"/>
<label x="96.52" y="22.86" size="1.778" layer="95"/>
</segment>
<segment>
<pinref part="JP1" gate="A" pin="2"/>
<wire x1="142.24" y1="58.42" x2="134.62" y2="58.42" width="0.1524" layer="91"/>
<label x="134.62" y="58.42" size="1.778" layer="95"/>
</segment>
</net>
<net name="R/W" class="0">
<segment>
<pinref part="JP4" gate="A" pin="5"/>
<wire x1="104.14" y1="27.94" x2="96.52" y2="27.94" width="0.1524" layer="91"/>
<label x="96.52" y="27.94" size="1.778" layer="95"/>
</segment>
</net>
</nets>
</sheet>
</sheets>
</schematic>
</drawing>
<compatibility>
<note version="8.3" severity="warning">
Since Version 8.3, EAGLE supports URNs for individual library
assets (packages, symbols, and devices). The URNs of those assets
will not be understood (or retained) with this version.
</note>
<note version="8.3" severity="warning">
Since Version 8.3, EAGLE supports the association of 3D packages
with devices in libraries, schematics, and board files. Those 3D
packages will not be understood (or retained) with this version.
</note>
</compatibility>
</eagle>
