G04 EAGLE Gerber RS-274X export*
G75*
%MOMM*%
%FSLAX34Y34*%
%LPD*%
%INTop Copper*%
%IPPOS*%
%AMOC8*
5,1,8,0,0,1.08239X$1,22.5*%
G01*
%ADD10C,1.524000*%
%ADD11R,1.508000X1.508000*%
%ADD12C,1.508000*%
%ADD13R,1.308000X1.308000*%
%ADD14C,1.308000*%
%ADD15C,1.016000*%


D10*
X63500Y513080D02*
X63500Y528320D01*
X88900Y528320D02*
X88900Y513080D01*
X114300Y513080D02*
X114300Y528320D01*
X139700Y528320D02*
X139700Y513080D01*
X165100Y513080D02*
X165100Y528320D01*
X190500Y528320D02*
X190500Y513080D01*
D11*
X50800Y419100D03*
D12*
X50800Y393700D03*
X50800Y368300D03*
X50800Y342900D03*
X50800Y317500D03*
X50800Y292100D03*
X50800Y266700D03*
X50800Y241300D03*
X50800Y215900D03*
X50800Y190500D03*
X50800Y165100D03*
X50800Y139700D03*
X203200Y419100D03*
X203200Y393700D03*
X203200Y368300D03*
X203200Y342900D03*
X203200Y317500D03*
X203200Y292100D03*
X203200Y241300D03*
X203200Y215900D03*
X203200Y165100D03*
X203200Y139700D03*
X203200Y190500D03*
X203200Y266700D03*
X50800Y114300D03*
X50800Y88900D03*
X50800Y63500D03*
X203200Y114300D03*
X203200Y88900D03*
X203200Y63500D03*
D11*
X152400Y444500D03*
D12*
X152400Y419100D03*
X127000Y444500D03*
X127000Y419100D03*
X101600Y444500D03*
X101600Y419100D03*
D11*
X165100Y565150D03*
D12*
X139700Y565150D03*
X114300Y565150D03*
X88900Y565150D03*
D13*
X88900Y266700D03*
D14*
X114300Y266700D03*
X139700Y266700D03*
X165100Y266700D03*
D15*
X50800Y419100D02*
X38100Y419100D01*
X25400Y431800D01*
X25400Y452327D01*
X88900Y495300D02*
X88900Y520700D01*
X88900Y495300D02*
X76200Y482600D01*
X55673Y482600D01*
X25400Y452327D01*
X101600Y469900D02*
X114300Y482600D01*
X101600Y469900D02*
X88900Y469900D01*
X76200Y457200D01*
X76200Y406400D01*
X63500Y393700D01*
X50800Y393700D01*
X114300Y482600D02*
X114300Y520700D01*
X177800Y393700D02*
X165100Y381000D01*
X165100Y266700D01*
X177800Y393700D02*
X203200Y393700D01*
X139700Y520700D02*
X139700Y565150D01*
X139700Y520700D02*
X139700Y482600D01*
X152400Y469900D01*
X215900Y469900D01*
X228600Y457200D01*
X228600Y406400D01*
X215900Y393700D01*
X203200Y393700D01*
X254000Y279400D02*
X241300Y266700D01*
X203200Y266700D01*
X88900Y565150D02*
X88900Y584200D01*
X114300Y609600D02*
X228600Y609600D01*
X254000Y584200D01*
X114300Y609600D02*
X88900Y584200D01*
X254000Y584200D02*
X254000Y279400D01*
M02*
