Frequency,Nominal,Min,Max
3,-124.49763513579674,-126.09865818022479,-122.83781532452923
3.0698789768422623,-124.99768476100563,-126.6004905835557,-123.33354865183979
3.1413856441526984,-125.49560399630366,-127.09923168889867,-123.82811501687527
3.214557915712819,-125.99093495925659,-127.59441072515274,-124.32107551344147
3.289434588429555,-126.48321113771271,-128.0855502574448,-124.81198069056815
3.36605536290589,-126.97195800865762,-128.57216681751262,-125.30037111847328
3.444460864490648,-127.45669365749661,-129.05377151742334,-125.78577797092595
3.524692664818588,-127.93692939055542,-129.5298706389427,-126.26772361773523
3.606793303852238,-128.41217033330304,-129.99996619073463,-126.74572222063911
3.690806312437144,-128.88191600656026,-130.46355642550148,-127.21928032548553
3.776776235382501,-129.34566087278606,-130.92013630913752,-127.68789744324707
3.864748655079401,-129.8028948444036,-131.36919793400503,-128.1510666121362
3.95477021566922,-130.2531037460625,-131.82056058431684,-128.60468482775067
4.04688864777496,-130.69576972271656,-132.2703728554499,-129.03952069439896
4.141152793808653,-131.13037158541454,-132.71186024479687,-129.46662029291554
4.237612633868261,-131.55638508676424,-133.14451844956642,-129.88544222318143
4.336319312237781,-131.97328311811845,-133.56784179768,-130.29544062230875
4.43732516450462,-132.380535820636,-133.98132329043474,-130.69606534633388
4.540683745308622,-132.77761060248858,-134.38445454592056,-131.08676206620294
4.6464498567374415,-133.16397205459066,-134.77672563633683,-131.46697226978054
4.754679577383338,-133.53908175733076,-135.15762481243084,-131.8361331616974
4.865430292076788,-133.90239797084763,-135.52663810834161,-132.19367745292985
4.978760722312679,-134.25337520142241,-135.88324882010147,-132.5390330320617
5.09473095738523,-134.59146363653397,-136.22693685097184,-132.87162251021132
5.213402486248123,-134.91610844102934,-136.5571779166057,-133.19086263158917
5.334838230116765,-135.22674890669418,-136.87344260276396,-133.49616354158533
5.459102575829947,-135.5228174472385,-137.17519526791816,-133.7869279041515
5.586261409988599,-135.8037384303522,-137.4618927825674,-134.06254986002787
5.716382153889738,-136.06892683799688,-137.73298309644474,-134.3224138170706
5.849533799274131,-136.31778674549057,-137.98790362398606,-134.5658930635312
5.985786944906634,-136.54970960919556,-138.22607943747028,-134.79234819464045
6.125213834008583,-136.76407235172366,-138.44692125610115,-135.00112534223402
6.267888392562113,-136.96023523251864,-138.6498232179625,-135.191554196419
6.41388626850669,-137.13753949046227,-138.83416042025058,-135.36294580743188
6.563284871848651,-137.29530474376728,-138.99928621143607,-135.5145901548642
6.7161634157050125,-137.43282613085844,-139.14452921703403,-135.6457534703402
6.872602958303313,-137.54937117421815,-139.26919007844594,-135.75567529853996
7.03268644595976,-137.6441763472675,-139.37253788188175,-135.84356528017145
7.196498757058465,-137.71644332230355,-139.4538062516627,-135.90859963913985
7.364126747055084,-137.76533487530375,-139.51218907923715,-135.94991735477154
7.535659294528733,-137.78997042110674,-139.5468358560452,-135.96661599856915
7.711187348306583,-137.78942115008644,-139.5568465749195,-135.9577472136679
7.890803975686137,-137.76270473505278,-139.54126616108374,-135.92231181402093
8.074604411780738,-137.70877957479928,-139.49907839002068,-135.8592544794698
8.26268611001449,-137.6265385386136,-139.42919924563517,-135.76745802241922
8.455148793793352,-137.5148021743357,-139.3304696683394,-135.64573720202588
8.652094509379808,-137.37231134141774,-139.20164763911163,-135.4928320628915
8.853627679999146,-137.1977192302269,-139.04139954248123,-135.30740077757395
9.059855161206038,-136.98958272994412,-138.8482907491034,-135.08801197622424
9.27088629754076,-136.74635311040373,-138.6207753575894,-134.8331365529042
9.486832980505127,-136.46636598881514,-138.35718503620086,-134.54113894736975
9.707809707888837,-136.1478305614656,-138.05571690878824,-134.21026791424234
9.93393364447772,-135.788818094457,-137.71442043712824,-133.8386468097333
10.165324684176063,-135.38724968791192,-137.33118326520628,-133.42426345090627
10.402105513575936,-134.94088335694028,-136.90371601208628,-132.96495963572627
10.64440167700725,-134.44730051267314,-136.42953603162363,-132.458420456155
10.892341643103027,-133.9038919811815,-135.90595020302274,-131.90216359410329
11.146056872915162,-133.30784377131434,-135.33003688088786,-131.2935288645473
11.40568188961682,-132.65612289962053,-134.69862722300127,-130.55987651856782
11.671354349828402,-131.94546370786455,-134.06082386977175,-129.75036395328496
11.9432151166049,-131.17235527370823,-133.3885330874656,-128.87313752274994
12.221408334123364,-130.3330307265364,-132.6556164805844,-127.86340078708733
12.506081504110043,-129.42345954761828,-131.85833417912292,-126.75443854540637
12.79738556404776,-128.43934426650912,-130.99266289036225,-125.55879511023986
13.095474967204959,-127.37612337241336,-130.05428623861795,-124.27131429307599
13.400507764528873,-126.22898274555484,-129.1014533124547,-122.88667646941079
13.71264568844623,-124.99287847808863,-128.09135186476158,-121.39946787114955
14.032054238615924,-123.66257458334779,-127.00055995359104,-119.80427658960328
14.358902769679128,-122.23269975315773,-125.82418348277534,-118.09582072828671
14.693364581053363,-120.69782795247403,-124.55710938628866,-116.26911407770059
15.035617008818145,-119.05258813287628,-123.19404922666278,-114.31967392799807
15.385841519740922,-117.29180853900222,-121.72960337943147,-112.2437738528172
15.744223807493153,-115.41070074397076,-120.15835077930801,-110.03874111766467
16.110953891107556,-113.40508737875854,-118.47496961677346,-107.70329345871926
16.48622621572871,-111.27167515810929,-116.67439441767196,-105.23790318340903
16.870239755710443,-109.00837088692812,-114.75201435812548,-102.64516806169848
17.263198120114676,-106.61463238286599,-112.70391613840329,-99.93015908129703
17.665309660667635,-104.09183864814342,-110.52717189428779,-97.10070635442875
18.076787582230697,-101.44365459685503,-108.22016811503603,-94.16757856672864
18.497850055844427,-98.67635628795054,-105.78296515284372,-91.14451107691893
18.92872033440576,-95.799074804469,-103.2176687529778,-88.04804557493068
19.369626871039628,-92.82391319591737,-100.52878573820864,-84.89716125779574
19.82080344022784,-89.76589398333161,-97.72352689771147,-81.71270263921757
20.282489261759412,-86.64270663907142,-94.81201338593172,-78.51663842241472
20.75492912756805,-83.474245436613,-91.80734120504006,-75.33121315008331
21.238373531524093,-80.28195572471361,-88.72546422633802,-72.1780718732057
21.733078802249658,-77.08803592493543,-85.58487124767413,-69.07744288110423
22.23930723902748,-73.91456668995764,-82.40605621017907,-66.04745327474895
22.757327250875466,-70.78265146864369,-79.21080956380791,-63.10362967252517
23.287413498860705,-67.71165069275048,-76.0213870710651,-60.25860749904361
23.829847041728396,-64.71857549473327,-72.85963327773679,-57.52204390481293
24.384915484922928,-61.81768070343114,-69.74614491776272,-54.90070689770581
24.952913133080077,-59.020267423147516,-66.69955243199368,-52.39869964943872
25.53414114607124,-56.33467921975812,-63.735977531563,-50.01777436296578
26.12890769868236,-53.766457246804016,-60.86869670712916,-47.757692768805654
26.737528144012305,-51.31861019220611,-58.108011560066124,-45.616597589906604
27.36032518067723,-48.99195389545913,-55.4613027367559,-43.591368554351206
27.997629023909667,-46.78548056413566,-52.933228607393346,-41.67794572802711
28.64977758064301,-44.696725964297876,-50.52602338814747,-39.87161085191113
29.31711662867425,-42.72211237847037,-48.23985071977809,-38.167223464024104
29.999999999999925,-40.857253849682074,-46.07317522151942,-36.5594128228232
30.698789768422547,-39.09721735968332,-44.023123543740596,-35.04272926850648
31.413856441526907,-37.436738835934214,-42.08581577396049,-33.611760018795685
32.14557915712811,-35.870396354689085,-40.2566563058464,-32.261214860717345
32.89434588429547,-34.392744916997565,-38.530579786739835,-30.985987084351557
33.66055362905882,-32.99841809116826,-36.902252385429456,-29.781194552561065
34.444608644906396,-31.682201985770693,-35.36623156443493,-28.642205186570006
35.2469266481858,-30.43908672556596,-33.917089143219556,-27.564650486055726
36.0679330385223,-29.264300060747352,-32.54950306967444,-26.544430064013465
36.90806312437135,-28.153327093661655,-31.258323305015796,-25.577709598755895
37.76776235382492,-27.101919449906465,-30.038616831734984,-24.660914104349917
38.64748655079392,-26.106096606333974,-28.88569620411201,-23.790717999637266
39.54770215669211,-25.162141544006857,-27.795135402849073,-22.964033110255976
40.4688864777495,-24.266592429099656,-26.762776108130083,-22.177995459540696
41.41152793808643,-23.416231638234123,-25.78472691256147,-21.42995148323266
42.37612633868251,-22.608073130251086,-24.857357477201514,-20.717444129993332
43.3631931223777,-21.83934891488693,-23.977289195643728,-20.038199175983
44.373251645046096,-21.10749517052381,-23.141383569670282,-19.390111979521272
45.40683745308611,-20.410138408826185,-22.346729207683634,-18.771234824567486
46.46449856737431,-19.74508196532106,-21.590628124511102,-18.179764944049005
47.54679577383327,-19.110293004645857,-20.87058183860077,-17.61403327154864
48.654302920767755,-18.503890161268103,-20.184277621072717,-17.07249393903881
49.78760722312667,-17.92413188605437,-19.52957514259776,-16.553714516446682
50.94730957385217,-17.369405532165747,-18.904493681863567,-16.056366973683105
52.1340248624811,-16.838217187226814,-18.307199997824764,-15.579219335678719
53.34838230116751,-16.329182240067958,-17.73599692243596,-15.121127994641194
54.591025758299324,-15.841016657635986,-17.18931269745397,-14.6810306401773
55.86261409988584,-15.3725289394004,-16.66569105525189,-14.257939766352916
57.163821538897224,-14.922612711594043,-16.163782027121904,-13.8509367146129
58.49533799274116,-14.490239921031591,-15.682333451472875,-13.459166212319749
59.857869449066186,-14.074454587374467,-15.22018314727165,-13.081831368169217
61.25213834008567,-13.674367073046795,-14.776251713976428,-12.7181890876632
62.67888392562097,-13.289148831173781,-14.349535917256285,-12.36754587398856
64.13886268506674,-12.91802759362655,-13.939102619370146,-12.029253981938615
65.63284871848634,-12.560282963307811,-13.54408321372941,-11.702707894830459
67.16163415704995,-12.215242377046879,-13.163668524544295,-11.387341096652293
68.72602958303294,-11.882277407782183,-12.797104134300112,-11.0826231138796
70.3268644595974,-11.560800377015754,-12.443686103934633,-10.78805680349729
71.96498757058444,-11.250261250775202,-12.102757052857964,-10.503175865742508
73.64126747055063,-10.950144794477254,-11.773702568271247,-10.22754256193001
75.35659294528712,-10.659967964133221,-11.4559479155331,-9.960745619436494
77.11187348306562,-10.379277513255488,-11.148955023545607,-9.702398307503321
78.90803975686116,-10.107647796612394,-10.852219721254437,-9.452136668973361
80.74604411780716,-9.844678753633527,-10.56526920336162,-9.2096178944117
82.62686110014467,-9.5899940557933,-10.287659705225485,-8.974518826280107
84.55148793793327,-9.343239403700954,-10.018974368664397,-8.746534581947966
86.52094509379782,-9.10408096090726,-9.758821281993018,-8.525377285336118
88.5362767999912,-8.872203912609669,-9.506831679101975,-8.310774897911601
90.5985516120601,-8.647311138504168,-9.262658283752124,-8.102470140589508
92.70886297540733,-8.429121990004479,-9.025973786498577,-7.900219498858243
94.86832980505098,-8.217371162932038,-8.796469442795086,-7.703792304135298
97.07809707888806,-8.011807657582528,-8.573853781863422,-7.5129698849862585
99.3393364447769,-7.812193818803149,-8.357851416853887,-7.327544782408163
101.65324684176032,-7.618304449375546,-8.148201947678118,-7.147320023893044
104.02105513575904,-7.429925990598459,-7.944658948672042,-6.972108451454684
106.44401677007217,-7.246855764508287,-7.746989033951926,-6.801732099225338
108.92341643102992,-7.068901272667921,-7.5549709939659335,-6.636021616613359
111.46056872915126,-6.895879546902129,-7.368394997323558,-6.474815733361606
114.05681889616784,-6.72761654776271,-7.187061852511371,-6.3179607631629064
116.71354349828364,-6.563946606874871,-7.010782324580885,-6.165310142776567
119.43215116604863,-6.40471190965025,-6.839376502326446,-6.016724003850885
122.21408334123325,-6.249762015155,-6.672673211864247,-5.872068774894083
125.06081504110003,-6.098953410197042,-6.510509472879204,-5.731216811051989
127.97385564047718,-5.952149094946353,-6.352729994130112,-5.594046049546997
130.95474967204916,-5.809218197630229,-6.199186705096767,-5.460439688811868
134.00507764528828,-5.670035616051649,-6.049738320919546,-5.330285889514418
137.12645688446185,-5.534481683867797,-5.904249938024275,-5.203477495817738
140.32054238615876,-5.402441859736706,-5.762592658045434,-5.079911775355843
143.5890276967908,-5.273806437596512,-5.62464323786134,-4.959490176527985
146.93364581053314,-5.148470276483862,-5.490283763737263,-4.84211810182756
150.35617008818093,-5.026332548428103,-5.359401347738544,-4.727704696024603
153.85841519740868,-4.907296503076195,-5.231887844727418,-4.616162648114699
157.44223807493097,-4.791269247811566,-5.1076395883947905,-4.50740800603337
161.109538911075,-4.67816154222887,-4.986557144904652,-4.401360003213612
164.86226215728652,-4.567887605917193,-4.868545082843327,-4.297940896136376
168.70239755710386,-4.460364938586652,-4.753511758270863,-4.1970758120898
172.6319812011462,-4.355514151649266,-4.64136911376791,-4.098692606413526
176.6530966066758,-4.253258810434019,-4.5320324904588585,-4.002721728560099
180.76787582230642,-4.1535252862798355,-4.425420452072543,-3.909096096356041
184.97850055844373,-4.056242617808135,-4.32145462017513,-3.8177509778925525
189.28720334405702,-3.961342380730288,-4.220059519777102,-3.728623880518153
193.69626871039566,-3.868758565594181,-4.1211624345780695,-3.6416544464456093
198.20803440227778,-3.7784274629192787,-4.024693271169534,-3.556784354521574
202.82489261759346,-3.690287555210839,-3.930584431567794,-3.473957227740871
207.54929127567985,-3.60427941538211,-3.83877069349676,-3.393118546118187
212.38373531524024,-3.520345611148338,-3.749189097884284,-3.3142155645583307
217.33078802249585,-3.438430614988569,-3.661778843075796,-3.237197235392277
222.39307239027406,-3.3584807193010597,-3.5764811853061516,-3.1620141352704336
227.5732725087539,-3.280443956405344,-3.493239345004564,-3.088618396126781
232.87413498860624,-3.2042700230692827,-3.4119984185388965,-3.016963639948014
238.29847041728314,-3.1299102092626963,-3.3327052950344576,-2.947004917100922
243.84915484922843,-3.057317330860564,-3.2553085779291466,-2.878698647988583
249.5291313307999,-2.986445666038736,-3.179758510951143,-2.812002567822278
255.3414114607115,-2.9172508951232134,-3.106006908228195,-2.7468756743109997
261.2890769868227,-2.849690043671203,-3.0340070882583694,-2.683278178084153
267.37528144012214,-2.78372142857749,-2.9637138114913304,-2.621171455676029
273.60325180677137,-2.719304607014484,-2.895083221287247,-2.5605180049124074
279.9762902390957,-2.656400328027359,-2.8280727880366507,-2.5012814025506334
286.4977758064291,-2.5949704866182333,-2.7626412562400393,-2.4434262640347555
293.1711662867415,-2.5349780801648607,-2.698748594359937,-2.3869182052366917
299.99999999999824,-2.4763871670297988,-2.6363559472712197,-2.3317238060631524
306.98789768422444,-2.4191628272259362,-2.575425591147594,-2.2778105758162424
314.138564415268,-2.363271125013351,-2.5159208906332933,-2.2251469202030734
321.45579157128,-2.308679073311026,-2.457806258159364,-2.1737021098968095
328.9434588429535,-2.255354599814621,-2.4010471152735713,-2.1234462505580067
336.60553629058694,-2.2032665147190005,-2.3456098558618335,-2.0743502542311982
344.44608644906265,-2.152384479950794,-2.291461811147291,-2.0263858120371805
352.4692664818566,-2.1026789798226706,-2.2385712163608895,-1.9795253680867717
360.67933038522153,-2.054121293026796,-2.1869071789843253,-1.9337420945465766
369.08063124371205,-2.0066834658903554,-2.1364396484729253,-1.8890098677918437
377.6776235382477,-1.9603382868210621,-2.0871393873720563,-1.845303245585644
386.47486550793764,-1.9150592618753381,-2.0389779437464433,-1.802597445227569
395.4770215669195,-1.870820591386069,-1.9919276248469902,-1.7608683226186552
404.6888647774934,-1.8275971475910342,-1.945961471944664,-1.7200923521927833
414.11527938086266,-1.7853644532067723,-1.9010532362655652,-1.6802466076677718
423.76126338682343,-1.7440986608962639,-1.8571773559655573,-1.6413087435724718
433.6319312237753,-1.7037765335819826,-1.8143089340867873,-1.6032569775087735
443.73251645045923,-1.6643754255589789,-1.7724237174421165,-1.5660700731100836
454.0683745308594,-1.625873264365502,-1.7314980763769277,-1.5297273236601237
464.64498567374125,-1.5882485333712622,-1.6915089853609317,-1.4942085363381743
475.4679577383308,-1.5514802550459472,-1.6524340043656234,-1.4594940170589286
486.54302920767566,-1.515547974872908,-1.614251260985763,-1.4255645558770416
497.87607223126474,-1.4804317458750509,-1.5769394332658715,-1.392401412928272
509.47309573851976,-1.4461121137219752,-1.5404777331951367,-1.35998630488079
521.340248624809,-1.4125701023893042,-1.5048458908363807,-1.3283013918717974
533.483823011673,-1.3797872003428613,-1.4700241390568094,-1.297329264906058
545.9102575829911,-1.3477453472219667,-1.435993198830242,-1.2670529336943168
558.6261409988562,-1.3164269209977095,-1.4027342650823533,-1.2374558149108696
571.6382153889699,-1.2858147255833992,-1.370228993052159,-1.2085217208507326
584.9533799274093,-1.2558919788757739,-1.338459485144524,-1.180234848467969
598.5786944906595,-1.226642301206778,-1.307408278250076,-1.1525797687778254
612.5213834008542,-1.1980497041868723,-1.2770583315101232,-1.1255414166062294
626.7888392562071,-1.1700985799219368,-1.2473930145056704,-1.099105080671203
641.3886268506648,-1.1427736905868213,-1.2183960958506563,-1.0732563939815356
656.3284871848608,-1.1160601583395975,-1.1900517321708346,-1.0479813245389036
671.6163415704968,-1.089943455561384,-1.162344457450627,-1.0232661663303715
687.2602958303268,-1.0644093954075338,-1.135259172731437,-0.9990975305988932
703.2686445959713,-1.0394441226566746,-1.108781136145673,-0.9754623373801102
719.6498757058416,-1.015034104844868,-1.0828959532717297,-0.95234780729438
736.4126747055035,-0.9911661236728511,-1.0575895677959526,-0.9297414535835055
753.5659294528683,-0.9678272666749209,-1.0328482524683305,-0.9076310743822233
771.1187348306532,-0.9450049191386569,-1.0086586003394347,-0.8860047452149937
789.0803975686085,-0.9226867562652467,-0.9850075162667815,-0.8648508117091417
807.4604411780685,-0.9008607355606746,-0.9618822086793987,-0.84415788251581
826.2686110014436,-0.8795150894485799,-0.9392701815899875,-0.823914822430655
845.5148793793296,-0.8586383180960218,-0.9171592268446227,-0.8041107457065887
865.209450937975,-0.8382191824438263,-0.8955374166004478,-0.7847350095512257
885.3627679999088,-0.8182466974336459,-0.8743930960223142,-0.7657772078021086
905.9855161205977,-0.798710125424182,-0.8537148761897728,-0.7472271647730397
927.0886297540698,-0.7795989697894564,-0.8334916272062394,-0.7290749292652144
948.6832980505062,-0.7609029686923067,-0.813712471502592,-0.7113107687371203
970.780970788877,-0.7426120890266242,-0.7943667773277956,-0.6939251636274592
993.3933644477653,-0.7247165205221624,-0.775444152419557,-0.6769088018255671
1016.5324684175995,-0.7072066700060206,-0.7569344378483014,-0.6602525732841302
1040.2105513575866,-0.6900731558151778,-0.7388277020280996,-0.6439475647691347
1064.440167700718,-0.6733068023546981,-0.7211142348884885,-0.6279850547422751
1089.2341643102952,-0.6568986347964972,-0.7037845422013677,-0.6123565083712271
1114.6056872915085,-0.6408398739137365,-0.6868293400574638,-0.5970535726633766
1140.5681889616742,-0.6251219310461766,-0.6702395494870603,-0.5820680717187883
1167.135434982832,-0.6097364031919845,-0.6540062912199687,-0.5673916650496788
1194.3215116604817,-0.5946750682216867,-0.6381208805798939,-0.5530160403280249
1222.140833412328,-0.579929880210161,-0.6225748225085926,-0.5389344530538412
1250.6081504109957,-0.565492964882696,-0.6073598067153966,-0.525139382284692
1279.7385564047672,-0.5513566151713313,-0.5924677029478748,-0.5116234626548807
1309.5474967204868,-0.5375132868778313,-0.5778905563795647,-0.4983794802262003
1340.050776452878,-0.523955594439791,-0.5636205831108956,-0.48540036843534606
1371.2645688446134,-0.5106763067965143,-0.549650165779561,-0.4726792041347285
1403.2054238615826,-0.49766834335141386,-0.5359718492767509,-0.46020920372357876
1435.8902769679028,-0.484924770027835,-0.5225783365658048,-0.44798371936635095
1469.336458105326,-0.4724387954152849,-0.5094624845999769,-0.43599623529551434
1503.561700881804,-0.46020376700318266,-0.4966173616745492,-0.4242403641959678
1538.5841519740814,-0.44821316749934453,-0.4840366236791143,-0.4127098436683757
1574.4223807493042,-0.4364606112305074,-0.47171299437515996,-0.401398532768836
1611.0953891107442,-0.4249398406222954,-0.4596398528068622,-0.39030040862238374
1648.6226215728593,-0.41364472275612557,-0.4478107724008519,-0.3794095631078852
1687.0239755710325,-0.40256924600061317,-0.4362194576790735,-0.36872019961202357
1726.3198120114555,-0.3917075167151546,-0.42485974080836547,-0.3582266298500645
1766.5309660667513,-0.38105375602339253,-0.413725578225263,-0.3479232707512522
1807.6787582230572,-0.3706022966543879,-0.402811047333736,-0.337804641406683
1849.78500558443,-0.36034757984935817,-0.3921103432736396,-0.32786536007761474
1892.872033440563,-0.350284152331921,-0.3816177757577238,-0.31810014126221103
1936.9626871039493,-0.3404066633398499,-0.3713277659751298,-0.30850379281878526
1982.0803440227703,-0.33070986171638905,-0.3612348435593353,-0.299071213143661
2028.2489261759272,-0.32118859305925057,-0.35133364361860037,-0.2897973884018258
2075.4929127567907,-0.3118377969254642,-0.34161890382700155,-0.28067738980860457
2123.8373531523944,-0.30265250409029254,-0.3320854615742082,-0.27170637096061484
2173.30788022495,-0.2936278338584926,-0.32272825117219656,-0.26287956521433586
2223.930723902732,-0.28475899142622796,-0.31354230111716386,-0.254192283110644
2275.7327250875305,-0.2760412652920026,-0.30452273140492553,-0.2456399098437329
2328.7413498860537,-0.2674700247150159,-0.2956647508981591,-0.23721790277284555
2382.9847041728226,-0.25904071721938277,-0.28696365474386254,-0.22892178897531787
2438.4915484922753,-0.2507488661427048,-0.278414821839472,-0.22074716283945
2495.29131330799,-0.2425900682275141,-0.27001371234610055,-0.21268968369575508
2553.414114607106,-0.23455999125413896,-0.26175586524740085,-0.2047450734851787
