Frequency,Nominal,Min,Max
3,7.440225400084317e-7,7.341545617264573e-7,7.541572630382808e-7
3.0698789768422623,7.450935615588178e-7,7.350914523802889e-7,7.553753075930625e-7
3.1413856441526984,7.462157178578529e-7,7.360730079560965e-7,7.566515985281661e-7
3.214557915712819,7.473914823618722e-7,7.371013827126585e-7,7.579889620094966e-7
3.289434588429555,7.486234512064101e-7,7.381788371788006e-7,7.593903651762428e-7
3.36605536290589,7.499143495703921e-7,7.393077436157076e-7,7.608589235230459e-7
3.444460864490648,7.512670383947078e-7,7.404905917794935e-7,7.62397908698266e-7
3.524692664818588,7.526845214767085e-7,7.417299950020597e-7,7.640107567438536e-7
3.606793303852238,7.541699529635517e-7,7.430286966094693e-7,7.65701076803917e-7
3.690806312437144,7.557266452688014e-7,7.443895766982973e-7,7.674726603307757e-7
3.776776235382501,7.573580774382231e-7,7.45815659291742e-7,7.693294908190638e-7
3.864748655079401,7.590679039923695e-7,7.47310119898687e-7,7.712757541002805e-7
3.95477021566922,7.608599642752263e-7,7.488762935003829e-7,7.73315849232091e-7
4.04688864777496,7.62738292340017e-7,7.505176829909861e-7,7.754544000186278e-7
4.141152793808653,7.647071274050792e-7,7.522379680998218e-7,7.776962672000286e-7
4.237612633868261,7.667709249146505e-7,7.540410148249754e-7,7.800465613514283e-7
4.336319312237781,7.689343682413487e-7,7.5593088540959e-7,7.82510656533577e-7
4.43732516450462,7.712023810690925e-7,7.57911848894114e-7,7.850942047391451e-7
4.540683745308622,7.735801404971765e-7,7.599883922796412e-7,7.87803151180521e-7
4.6464498567374415,7.760730909081128e-7,7.621652323394211e-7,7.906437504664526e-7
4.754679577383338,7.786869586436784e-7,7.644473281175807e-7,7.936225837161371e-7
4.865430292076788,7.814277675352489e-7,7.668398941560072e-7,7.967465766601832e-7
4.978760722312679,7.843018553359271e-7,7.693484144922287e-7,8.000230187781155e-7
5.09473095738523,7.87315891103014e-7,7.719786574728641e-7,8.03459583521606e-7
5.213402486248123,7.904768935799848e-7,7.747366914287935e-7,8.070643496710656e-7
5.334838230116765,7.937922506270419e-7,7.77628901259491e-7,8.108458238704474e-7
5.459102575829947,7.972697397484272e-7,7.806620059748723e-7,8.148129643805882e-7
5.586261409988599,8.009175497626054e-7,7.838430772434005e-7,8.189752060847673e-7
5.716382153889738,8.047443036579893e-7,7.871795589948715e-7,8.233424867707914e-7
5.849533799274131,8.087590826714753e-7,7.906792881250468e-7,8.279252747010551e-7
5.985786944906634,8.129714516193923e-7,7.94350516346864e-7,8.327345974648237e-7
6.125213834008583,8.173914854996991e-7,7.982019332289115e-7,8.377820720843049e-7
6.267888392562113,8.220297973697505e-7,8.022426904558532e-7,8.430799363165099e-7
6.41388626850669,8.268975674846282e-7,8.064824273369163e-7,8.486410810547646e-7
6.563284871848651,8.320065736557039e-7,8.109312975767683e-7,8.5447908368487e-7
6.7161634157050125,8.373692227562546e-7,8.155999973072455e-7,8.606082421887056e-7
6.872602958303313,8.429985832587106e-7,8.204997943574207e-7,8.670436097092562e-7
7.03268644595976,8.489084186341487e-7,8.256425587121097e-7,8.738010291916198e-7
7.196498757058465,8.551132213761389e-7,8.31040794073484e-7,8.808971675895733e-7
7.364126747055084,8.616282473243631e-7,8.367076703950331e-7,8.88349548970596e-7
7.535659294528733,8.684695498543225e-7,8.426570571991917e-7,8.961765856564425e-7
7.711187348306583,8.756540133624163e-7,8.489035574164965e-7,9.043976062921442e-7
7.890803975686137,8.831993853041655e-7,8.554625413913946e-7,9.130328794324794e-7
8.074604411780738,8.911243058292122e-7,8.623501805831442e-7,9.221036308576761e-7
8.26268611001449,8.99448333789911e-7,8.695834803439246e-7,9.316320523627178e-7
8.455148793793352,9.081919675687148e-7,8.771803109732335e-7,9.416412991867854e-7
8.652094509379808,9.173766587581721e-7,8.851594360193385e-7,9.521554725367056e-7
8.853627679999146,9.270248162181873e-7,8.93540536514258e-7,9.631995827817285e-7
9.059855161206038,9.371597974063768e-7,9.023442294756817e-7,9.74799487821946e-7
9.27088629754076,9.478058831027417e-7,9.115920785715425e-7,9.869817998190836e-7
9.486832980505127,9.589882306982928e-7,9.213065943016397e-7,9.997737518800587e-7
9.707809707888837,9.707328000520867e-7,9.315112203827139e-7,0.000001013203014348922
9.93393364447772,9.830662444999162e-7,9.422303022012223e-7,0.0000010272974480357697
10.165324684176063,9.960157578723761e-7,9.534890321891678e-7,0.0000010420847789347508
10.402105513575936,0.0000010096088662969602,9.65313365744422e-7,0.0000010575921757041928
10.64440167700725,0.0000010238731510618812,9.777298998141625e-7,0.000001073845707359985
10.892341643103027,0.000001038835885852752,9.907657044386583e-7,0.0000010908696542558989
11.146056872915162,0.000001054523568188857,0.0000010044480953587108,0.000001108685640528698
11.40568188961682,0.0000010709613208536911,0.000001018804333167368,0.0000011273115508923667
11.671354349828402,0.0000010881721345409285,0.0000010338612313816204,0.0000011467601892277918
11.9432151166049,0.0000011061759178909792,0.0000010496446521793476,0.000001167037631286464
12.221408334123364,0.0000011249883157460866,0.000001066178864371049,0.0000011881412197590116
12.506081504110043,0.0000011446192511337119,0.0000010834857334782656,0.0000012100571481189616
12.79738556404776,0.0000011650711417670609,0.0000011015837086682513,0.0000012327575817725155
13.095474967204959,0.000001186336738638827,0.0000011204865659625072,0.0000012562537688597517
13.400507764528873,0.000001208396533967201,0.0000011402018619913614,0.000001281327201559789
13.71264568844623,0.0000012312156903529291,0.0000011607290482713043,0.0000013071983782808422
14.032054238615924,0.00000125474045534238,0.000001181681977195365,0.0000013337806410839706
14.358902769679128,0.000001278894049415149,0.000001202939009787166,0.0000013609549367976748
14.693364581053363,0.0000013035720554325739,0.0000012247489759494886,0.0000013885637591911176
15.035617008818145,0.0000013286373992476457,0.0000012470212350238736,0.0000014164048147831165
15.385841519740922,0.0000013539151000399956,0.0000012696377001844023,0.0000014442248002079964
15.744223807493153,0.0000013791870893181269,0.0000012924485318484654,0.0000014717138802376745
16.110953891107556,0.0000014041875501869793,0.0000013152678648680235,0.000001498501689929051
16.48622621572871,0.0000014285994071325552,0.0000013378699091379204,0.0000015241559254766244
16.870239755710443,0.0000014520527833891925,0.000001359985897133968,0.0000015481847863219104
17.263198120114676,0.0000014741264038376376,0.00000137757837247401,0.0000015755216217144712
17.665309660667635,0.0000014943530030924243,0.0000013928045146701796,0.0000016018595444647797
18.076787582230697,0.0000015122297308218608,0.0000014059053361853787,0.0000016257094643069147
18.497850055844427,0.0000015272342538837133,0.0000014164832016772357,0.0000016463961355644652
18.92872033440576,0.0000015388466806910772,0.0000014241501744063881,0.0000016632297904683869
19.369626871039628,0.0000015465765743585159,0.0000014285473487589144,0.0000016755423998052086
19.82080344022784,0.0000015499932652909025,0.0000014293657490995513,0.0000016827305783945983
20.282489261759412,0.000001548756618387234,0.0000014263669078151578,0.0000016843011495498893
20.75492912756805,0.000001542644640243249,0.0000014194008668233375,0.0000016799137884816615
21.238373531524093,0.0000015315741250074064,0.0000014084193252100132,0.0000016694144633568682
21.733078802249658,0.0000015156111277310116,0.0000013934820632727272,0.0000016528540477589105
22.23930723902748,0.0000014949694035138254,0.0000013747555834176362,0.0000016304885728869421
22.757327250875466,0.000001469996791820198,0.0000013525039735418907,0.000001602760695121679
23.287413498860705,0.0000014411514091409106,0.0000013270730858317498,0.0000015702652410669764
23.829847041728396,0.0000014089709664970505,0.0000012988699882884462,0.0000015337042362923803
24.384915484922928,0.0000013740392254153767,0.0000012683401106782752,0.0000014938379883397826
24.952913133080077,0.000001336953471541537,0.0000012359445134716801,0.000001451438450253355
25.53414114607124,0.000001298296085391001,0.000001202139323000277,0.0000014072495914426908
26.12890769868236,0.0000012586121339163448,0.0000011669631800136964,0.0000013619574607056328
26.737528144012305,0.0000012183937179681953,0.0000011267866290918116,0.0000013178848264606486
27.36032518067723,0.0000011780708292516039,0.0000010873156099808607,0.000001275726985104769
27.997629023909667,0.0000011380078131662546,0.0000010487595663919085,0.0000012332809405771702
28.64977758064301,0.0000010985042080453772,0.0000010112761146829404,0.0000011933246283827895
29.31711662867425,0.0000010597986738253203,9.749781504798947e-7,0.0000011534454202745264
29.999999999999925,0.0000010220748439580212,9.399409143741793e-7,0.0000011139296540126365
30.698789768422547,9.854681473827919e-7,9.062086313187344e-7,0.0000010750532394863455
31.413856441526907,9.500728866981063e-7,8.738005028910197e-7,0.0000010370335823064148
32.14557915712811,9.159490823766977e-7,8.427159527773876e-7,0.0000010000357927556055
32.89434588429547,8.831287796861433e-7,8.129391088178751e-7,9.641795925977153e-7
33.66055362905882,8.5162165836546e-7,7.844425573368649e-7,9.295462901517614e-7
34.444608644906396,8.214198873512408e-7,7.57190435064402e-7,8.961854048044232e-7
35.2469266481858,7.925022344960488e-7,7.311409375615695e-7,8.641206928997766e-7
36.0679330385223,7.648374820886935e-7,7.062483261649026e-7,8.333554547511338e-7
36.90806312437135,7.383872204503689e-7,6.824645121416192e-7,8.038770914658275e-7
37.76776235382492,7.131081001243044e-7,6.597402898855044e-7,7.756609375230473e-7
38.64748655079392,6.889536229835591e-7,6.380262825202561e-7,7.486734283211746e-7
39.54770215669211,6.658755474358935e-7,6.172736544442116e-7,7.228746781741859e-7
40.4688864777495,6.438249752131382e-7,5.97434636877919e-7,6.982205491471982e-7
41.41152793808643,6.227531785733456e-7,5.78462904754728e-7,6.746642889655408e-7
42.37612633868251,6.026122180921769e-7,5.603138364944562e-7,6.521578100753762e-7
43.3631931223777,5.833553931312629e-7,5.429446823555575e-7,6.306526738587415e-7
44.373251645046096,5.649375598226244e-7,5.263146621278153e-7,6.101008353516957e-7
45.40683745308611,5.473153450993949e-7,5.103850088206851e-7,5.90455195389621e-7
46.46449856737431,5.304472799276214e-7,4.951189716206593e-7,5.716699993531619e-7
47.54679577383327,5.14293870386427e-7,4.804817886306793e-7,5.537011148178828e-7
48.654302920767755,4.988176215108212e-7,4.6644063766770206e-7,5.3650621447761e-7
49.78760722312667,4.83983025750221e-7,4.529645715927598e-7,5.200448856854132e-7
50.94730957385217,4.6975652540545666e-7,4.4002444320420494e-7,5.042786837605986e-7
52.1340248624811,4.561064563946294e-7,4.275928235735036e-7,4.891711427476072e-7
53.34838230116751,4.430029790811886e-7,4.156439167887615e-7,4.746877544814475e-7
54.591025758299324,4.30418000604739e-7,4.041534733482517e-7,4.607959245164184e-7
55.86261409988584,4.1832509212604507e-7,3.930987038769677e-7,4.474649116216805e-7
57.163821538897224,4.0669940358211536e-7,3.824581943929062e-7,4.3466575606068835e-7
58.49533799274116,3.955175779034898e-7,3.7221182400150493e-7,4.2237120068476547e-7
59.857869449066186,3.847576661399037e-7,3.6234068562632803e-7,4.1055560792790346e-7
61.25213834008567,3.7439904454459416e-7,3.528270101755399e-7,3.9919487504330114e-7
62.67888392562097,3.6442233435930124e-7,3.43654094384001e-7,3.8826634933373803e-7
64.13886268506674,3.548093248033792e-7,3.348062324496229e-7,3.777487446660495e-7
65.63284871848634,3.4554289958691155e-7,3.262686514916664e-7,3.676220601991863e-7
67.16163415704995,3.366069671277187e-7,3.180274507914173e-7,3.578675019749591e-7
68.72602958303294,3.2798639454638226e-7,3.1006954472691675e-7,3.484674078039258e-7
70.3268644595974,3.1966694543452524e-7,3.023826092790239e-7,3.3940517571270243e-7
71.96498757058444,3.1163522133372927e-7,2.949550319627877e-7,3.306651960925708e-7
73.64126747055063,3.0387860682096336e-7,2.8777586502334114e-7,3.222327875941477e-7
75.35659294528712,2.963852180675935e-7,2.8083478172724363e-7,3.1409413674228933e-7
77.11187348306562,2.891438547200119e-7,2.741220355768241e-7,3.0623624119397276e-7
78.90803975686116,2.821439549383773e-7,2.6762842227535296e-7,2.9864685652536135e-7
80.74604411780716,2.7537555342409265e-7,2.6134524427382214e-7,2.913144464092388e-7
82.62686110014467,2.6882924226505044e-7,2.5526427773497756e-7,2.842281360278609e-7
84.55148793793327,2.6249613442922773e-7,2.4937774175644943e-7,2.7737766855688e-7
86.52094509379782,2.5636782974106116e-7,2.4367826970190295e-7,2.7075336455174846e-7
88.5362767999912,2.5043638318050523e-7,2.381588824967274e-7,2.6434608406755955e-7
90.5985516120601,2.446942753512448e-7,2.3281296375266832e-7,2.581471913456777e-7
92.70886297540733,2.3913438497180865e-7,2.276342365937407e-7,2.521485219049071e-7
94.86832980505098,2.3374996325101055e-7,2.2261674206363952e-7,2.463423518807884e-7
97.07809707888806,2.285346100169905e-7,2.1775481900255093e-7,2.407213694633829e-7
99.3393364447769,2.234822514769774e-7,2.1304308528870748e-7,2.3527864829127268e-7
101.65324684176032,2.1858711949262677e-7,2.084764203471651e-7,2.3000762266718745e-7
104.02105513575904,2.1384373226329085e-7,2.0404994883507395e-7,2.249020644684526e-7
106.44401677007217,2.0924687631682372e-7,1.9975902541916518e-7,2.19956061633202e-7
108.92341643102992,2.0479158971443866e-7,1.9559922056725424e-7,2.1516399811088866e-7
111.46056872915126,2.0047314638271744e-7,1.9156630728128623e-7,2.1052053517297603e-7
114.05681889616784,1.962870414920913e-7,1.8765624870481357e-7,2.0602059398676514e-7
116.71354349828364,1.9222897780698125e-7,1.838651865428241e-7,2.016593393620541e-7
119.43215116604863,1.882948529382943e-7,1.8018943023652172e-7,1.974321645867208e-7
122.21408334123325,1.8448074743413695e-7,1.766254468400398e-7,1.933346772733743e-7
125.06081504110003,1.807829136494271e-7,1.7316985155013683e-7,1.8936268614490214e-7
127.97385564047718,1.7719776533959948e-7,1.6981939884370817e-7,1.8551218869209103e-7
130.95474967204916,1.737218679277845e-7,1.6657097418146212e-7,1.8177935964149048e-7
134.00507764528828,1.703519293987492e-7,1.6342158623936825e-7,1.781605401763682e-7
137.12645688446185,1.6708479177651327e-7,1.6036835963250616e-7,1.7465222785795554e-7
140.32054238615876,1.6391742314591627e-7,1.5740852809873602e-7,1.7125106719824119e-7
143.5890276967908,1.6084691018153224e-7,1.545394281121945e-7,1.6795384083934054e-7
146.93364581053314,1.578704511502113e-7,1.5175849289900335e-7,1.647574612979685e-7
150.35617008818093,1.5498534935619927e-7,1.4906324682977437e-7,1.6165896323679015e-7
153.85841519740868,1.521890070002473e-7,1.4645130016551206e-7,1.5865549622743122e-7
157.44223807493097,1.4947891942639563e-7,1.439203441353734e-7,1.5574431797271104e-7
161.109538911075,1.4685266973220497e-7,1.4146814632643785e-7,1.5292278795822952e-7
164.86226215728652,1.443079237201276e-7,1.3909254636719792e-7,1.5018836150580925e-7
168.70239755710386,1.4184242516947058e-7,1.367914518878884e-7,1.4753858420347553e-7
172.6319812011462,1.394539914100104e-7,1.3456283474206015e-7,1.449710866886633e-7
176.6530966066758,1.3714050917978337e-7,1.324047274749622e-7,1.4248357976317783e-7
180.76787582230642,1.3489993075091046e-7,1.303152200253427e-7,1.400738498201198e-7
184.97850055844373,1.32730270308518e-7,1.2829245664821656e-7,1.3773975456452083e-7
189.28720334405702,1.3062960056890542e-7,1.2633463304698192e-7,1.35479219010831e-7
193.69626871039566,1.2859604962408595e-7,1.2443999370401262e-7,1.3329023174166924e-7
198.20803440227778,1.2662779800069972e-7,1.2260682939950428e-7,1.3117084141338896e-7
202.82489261759346,1.2472307592207245e-7,1.2083347490892652e-7,1.2911915349504084e-7
207.54929127567985,1.2288016076287826e-7,1.1911830686993213e-7,1.2713332722823546e-7
212.38373531524024,1.210973746864669e-7,1.174597418100051e-7,1.2521157279622966e-7
217.33078802249585,1.1937308245543964e-7,1.1585623432649832e-7,1.2335214869128578e-7
222.39307239027406,1.177056894065135e-7,1.143062754110298e-7,1.21553359269994e-7
227.5732725087539,1.1609363958110566e-7,1.1280839091047391e-7,1.1981355248680776e-7
232.87413498860624,1.1453541400340529e-7,1.1136114011701176e-7,1.1813111779652825e-7
238.29847041728314,1.130295290979871e-7,1.0996311447989969e-7,1.1650448421690043e-7
243.84915484922843,1.1157453523926507e-7,1.0861293643178129e-7,1.1493211854283722e-7
249.5291313307999,1.1016901542529336e-7,1.0730925832251255e-7,1.1341252370410858e-7
255.3414114607115,1.0881158406859959e-7,1.0605076145360048e-7,1.1194423725859046e-7
261.2890769868227,1.0750088589689421e-7,1.0483615520647529e-7,1.105258300133998e-7
267.37528144012214,1.0623559495663628e-7,1.0366417625793164e-7,1.0915590476643625e-7
273.60325180677137,1.050144137125674e-7,1.0253358787619123e-7,1.0783309516102178e-7
279.9762902390957,1.0383607223644615e-7,1.0144317929115898e-7,1.0655606464648013e-7
286.4977758064291,1.0269932747833893e-7,1.0039176513257451e-7,1.0532350553763887e-7
293.1711662867415,1.0160296261394758e-7,9.937818492990172e-8,1.041341381663651e-7
299.99999999999824,1.0054578646158957e-7,9.840130266795285e-8,1.0298671011837622e-7
306.98789768422444,9.952663296258749e-8,9.7460006392415e-8,1.0187999554869678e-7
314.138564415268,9.854436071898424e-8,9.655320785963402e-8,1.0081279456927038e-7
321.45579157128,9.759785258267226e-8,9.567984222521612e-8,9.978393270238056e-8
328.9434588429535,9.668601529021376e-8,9.483886776623008e-8,9.879226039369466e-8
336.60553629058694,9.580777913783603e-8,9.402926563203359e-8,9.783665257891676e-8
344.44608644906265,9.496209769130961e-8,9.325003961900286e-8,9.691600829822616e-8
352.4692664818566,9.414794752565824e-8,9.25002159647149e-8,9.602925035288214e-8
360.67933038522153,9.336432798990603e-8,9.177884315741593e-8,9.517532499860236e-8
369.08063124371205,9.261026099233916e-8,9.108499175690165e-8,9.435320167055804e-8
377.6776235382477,9.188479080204268e-8,9.041775422323792e-8,9.356187273508944e-8
386.47486550793764,9.118698386276883e-8,8.977624475005648e-8,9.280035326351302e-8
395.4770215669195,9.051592861549509e-8,8.915959909946967e-8,9.206768082367687e-8
404.6888647774934,8.987073532633845e-8,8.856697443595842e-8,9.136291528521586e-8
414.11527938086266,8.925053591680448e-8,8.799754915689326e-8,9.06851386347603e-8
423.76126338682343,8.865448379365985e-8,8.74505227176507e-8,9.003345479766173e-8
433.6319312237753,8.80817536760267e-8,8.692511544957902e-8,8.940698946311251e-8
443.73251645045923,8.753154141760013e-8,8.642056836935364e-8,8.880488990984814e-8
454.0683745308594,8.70030638221871e-8,8.593614297853069e-8,8.822632482993382e-8
464.64498567374125,8.649555845104983e-8,8.547112105236814e-8,8.767048414844191e-8
475.4679577383308,8.600828342081319e-8,8.502480441722429e-8,8.713657883712811e-8
486.54302920767566,8.554051719095437e-8,8.459651471607082e-8,8.662384072050336e-8
497.87607223126474,8.509155834014056e-8,8.41855931618663e-8,8.613152227297718e-8
509.47309573851976,8.466072533090873e-8,8.379140027872679e-8,8.5658896406014e-8
521.340248624809,8.424735626239439e-8,8.341331563100331e-8,8.520525624449502e-8
533.483823011673,8.385080861101013e-8,8.305073754053092e-8,8.476991489171153e-8
545.9102575829911,8.347045895915128e-8,8.270308279244878e-8,8.435220518263363e-8
558.6261409988562,8.310570271216306e-8,8.236978633011127e-8,8.395147942529891e-8
571.6382153889699,8.275595380394349e-8,8.205030093970948e-8,8.356710913034431e-8
584.9533799274093,8.242064439167775e-8,8.174409692530771e-8,8.319848472887051e-8
598.5786944906595,8.20992245403031e-8,8.145066177506802e-8,8.284501527896997e-8
612.5213834008542,8.17911618973911e-8,8.116949981949011e-8,8.250612816137784e-8
626.7888392562071,8.149594135920549e-8,8.090013188253292e-8,8.21812687648131e-8
641.3886268506648,8.1213064728749e-8,8.064209492651187e-8,8.186990016166873e-8
656.3284871848608,8.094205036665597e-8,8.039494169168154e-8,8.157150277478598e-8
671.6163415704968,8.068243283581605e-8,8.015824033141774e-8,8.128557403610791e-8
687.2602958303268,8.043376254063162e-8,7.99315740439081e-8,8.101162803805241e-8
703.2686445959713,8.019560536181805e-8,7.971454070124943e-8,8.074919517847909e-8
719.6498757058416,7.996754228765359e-8,7.950675247682617e-8,8.049782180014342e-8
736.4126747055035,7.974916904257297e-8,7.930783547182223e-8,8.025706982554227e-8
753.5659294528683,7.954009571398082e-8,7.911742934168293e-8,8.00265163880533e-8
771.1187348306532,7.933994637813528e-8,7.893518692331045e-8,7.980575346026244e-8
789.0803975686085,7.914835872592065e-8,7.876077386373527e-8,7.959438748035637e-8
807.4604411780685,7.896498368929482e-8,7.859386825096402e-8,7.93920389774325e-8
826.2686110014436,7.878948506915474e-8,7.843416024766065e-8,7.919834219655111e-8
845.5148793793296,7.862153916532598e-8,7.828135172827161e-8,7.901294472431952e-8
865.209450937975,7.84608344093343e-8,7.813515592015976e-8,7.883550711575954e-8
885.3627679999088,7.830707100057529e-8,7.799529704926568e-8,7.866570252317022e-8
905.9855161205977,7.815996054645044e-8,7.786150999076784e-8,7.850321632765363e-8
927.0886297540698,7.80192257069918e-8,7.773353992516903e-8,7.834774577392693e-8
948.6832980505062,7.788459984445249e-8,7.761114200019057e-8,7.819899960899855e-8
970.780970788877,7.775582667829303e-8,7.74940809988132e-8,7.805669772524025e-8
993.3933644477653,7.76326599459504e-8,7.738213101376165e-8,7.792057080834013e-8
1016.5324684175995,7.751486306973272e-8,7.727507512868982e-8,7.779035999057728e-8
1040.2105513575866,7.74022088301404e-8,7.717270510628513e-8,7.766581650981291e-8
1064.440167700718,7.729447904587505e-8,7.707482108347408e-8,7.754670137454995e-8
1089.2341643102952,7.719146426075788e-8,7.698123127387763e-8,7.74327850353707e-8
1114.6056872915085,7.709296343774427e-8,7.689175167763147e-8,7.732384706302183e-8
1140.5681889616742,7.69987836601854e-8,7.680620579865724e-8,7.721967583337647e-8
1167.135434982832,7.690873984045646e-8,7.672442436944227e-8,7.712006821946769e-8
1194.3215116604817,7.682265443603934e-8,7.664624508335914e-8,7.702482929075081e-8
1222.140833412328,7.674035717312102e-8,7.657151233453313e-8,7.693377201972152e-8
1250.6081504109957,7.666168477774132e-8,7.650007696524282e-8,7.684671699598336e-8
1279.7385564047672,7.658648071450052e-8,7.643179602081963e-8,7.676349214783183e-8
1309.5474967204868,7.651459493281388e-8,7.636653251199421e-8,7.668393247139408e-8
1340.050776452878,7.644588362068189e-8,7.630415518461942e-8,7.660787976733933e-8
1371.2645688446134,7.638020896592441e-8,7.62445382966878e-8,7.653518238515274e-8
1403.2054238615826,7.631743892481168e-8,7.618756140254521e-8,7.646569497494365e-8
1435.8902769679028,7.625744699801013e-8,7.613310914419286e-8,7.639927824674198e-8
1469.336458105326,7.620011201374694e-8,7.608107104955904e-8,7.63357987372181e-8
1503.561700881804,7.6145317918086e-8,7.603134133761237e-8,7.627512858374733e-8
1538.5841519740814,7.609295357219784e-8,7.598381873018225e-8,7.621714530572529e-8
1574.4223807493042,7.604291255649633e-8,7.593840627034392e-8,7.616173159303004e-8
1611.0953891107442,7.599509298150768e-8,7.589501114722176e-8,7.610877510151386e-8
1648.6226215728593,7.594939730533088e-8,7.585354452705898e-8,7.605816825540128e-8
1687.0239755710325,7.590573215754266e-8,7.581392139039915e-8,7.60098080564585e-8
1726.3198120114555,7.586400816939603e-8,7.577606037522136e-8,7.59635958997955e-8
1766.5309660667513,7.582413981015773e-8,7.57398836258705e-8,7.591943739615477e-8
1807.6787582230572,7.578604522942691e-8,7.570531664762089e-8,7.587724220053602e-8
1849.78500558443,7.574964610527626e-8,7.56722881667132e-8,7.583692384700349e-8
1892.872033440563,7.571486749805407e-8,7.564072999570268e-8,7.579839958951777e-8
1936.9626871039493,7.568163770968709e-8,7.561057690395826e-8,7.576159024863417e-8
1982.0803440227703,7.564988814832204e-8,7.558176649315319e-8,7.5726420063906e-8
2028.2489261759272,7.561955319814535e-8,7.555423907758852e-8,7.569281655183234e-8
2075.4929127567907,7.55905700942213e-8,7.552793756919277e-8,7.566071036918815e-8
2123.8373531523944,7.556287880219014e-8,7.55028073670442e-8,7.563003518157655e-8
2173.30788022495,7.553642190266922e-8,7.547879625126217e-8,7.56007275370418e-8
2223.930723902732,7.551114448020257e-8,7.545585428111942e-8,7.557272674458565e-8
2275.7327250875305,7.548699401660657e-8,7.543393369722717e-8,7.554597475742828e-8
2328.7413498860537,7.546392028856186e-8,7.541298882765024e-8,7.552041606085944e-8
2382.9847041728226,7.544187526930403e-8,7.539297599781074e-8,7.549599756452661e-8
2438.4915484922753,7.542081303426995e-8,7.537385344404288e-8,7.547266849900959e-8
2495.29131330799,7.54006896705573e-8,7.535558123066477e-8,7.545038031653362e-8
2553.414114607106,7.538146319006086e-8,7.53381211704359e-8,7.542908659567662e-8
